xpm_cdc.sv,systemverilog,xil_defaultlib,../../../../../../../../Xilinx/Vivado/2019.1/data/ip/xpm/xpm_cdc/hdl/xpm_cdc.sv,incdir="../../../../dpp.srcs/sources_1/bd/design_1/ipshared/c923"incdir="../../../../dpp.srcs/sources_1/bd/design_1/ipshared/c923"
xpm_memory.sv,systemverilog,xil_defaultlib,../../../../../../../../Xilinx/Vivado/2019.1/data/ip/xpm/xpm_memory/hdl/xpm_memory.sv,incdir="../../../../dpp.srcs/sources_1/bd/design_1/ipshared/c923"incdir="../../../../dpp.srcs/sources_1/bd/design_1/ipshared/c923"
xpm_VCOMP.vhd,vhdl,xpm,../../../../../../../../Xilinx/Vivado/2019.1/data/ip/xpm/xpm_VCOMP.vhd,incdir="../../../../dpp.srcs/sources_1/bd/design_1/ipshared/c923"incdir="../../../../dpp.srcs/sources_1/bd/design_1/ipshared/c923"
design_1_clk_wiz_0_0_clk_wiz.v,verilog,xil_defaultlib,../../../bd/design_1/ip/design_1_clk_wiz_0_0/design_1_clk_wiz_0_0_clk_wiz.v,incdir="../../../../dpp.srcs/sources_1/bd/design_1/ipshared/c923"incdir="../../../../dpp.srcs/sources_1/bd/design_1/ipshared/c923"
design_1_clk_wiz_0_0.v,verilog,xil_defaultlib,../../../bd/design_1/ip/design_1_clk_wiz_0_0/design_1_clk_wiz_0_0.v,incdir="../../../../dpp.srcs/sources_1/bd/design_1/ipshared/c923"incdir="../../../../dpp.srcs/sources_1/bd/design_1/ipshared/c923"
axi_lite_ipif_v3_0_vh_rfs.vhd,vhdl,axi_lite_ipif_v3_0_4,../../../../dpp.srcs/sources_1/bd/design_1/ipshared/66ea/hdl/axi_lite_ipif_v3_0_vh_rfs.vhd,incdir="../../../../dpp.srcs/sources_1/bd/design_1/ipshared/c923"incdir="../../../../dpp.srcs/sources_1/bd/design_1/ipshared/c923"
lib_pkg_v1_0_rfs.vhd,vhdl,lib_pkg_v1_0_2,../../../../dpp.srcs/sources_1/bd/design_1/ipshared/0513/hdl/lib_pkg_v1_0_rfs.vhd,incdir="../../../../dpp.srcs/sources_1/bd/design_1/ipshared/c923"incdir="../../../../dpp.srcs/sources_1/bd/design_1/ipshared/c923"
lib_srl_fifo_v1_0_rfs.vhd,vhdl,lib_srl_fifo_v1_0_2,../../../../dpp.srcs/sources_1/bd/design_1/ipshared/51ce/hdl/lib_srl_fifo_v1_0_rfs.vhd,incdir="../../../../dpp.srcs/sources_1/bd/design_1/ipshared/c923"incdir="../../../../dpp.srcs/sources_1/bd/design_1/ipshared/c923"
lib_cdc_v1_0_rfs.vhd,vhdl,lib_cdc_v1_0_2,../../../../dpp.srcs/sources_1/bd/design_1/ipshared/ef1e/hdl/lib_cdc_v1_0_rfs.vhd,incdir="../../../../dpp.srcs/sources_1/bd/design_1/ipshared/c923"incdir="../../../../dpp.srcs/sources_1/bd/design_1/ipshared/c923"
axi_uartlite_v2_0_vh_rfs.vhd,vhdl,axi_uartlite_v2_0_23,../../../../dpp.srcs/sources_1/bd/design_1/ipshared/0315/hdl/axi_uartlite_v2_0_vh_rfs.vhd,incdir="../../../../dpp.srcs/sources_1/bd/design_1/ipshared/c923"incdir="../../../../dpp.srcs/sources_1/bd/design_1/ipshared/c923"
design_1_axi_uartlite_0_0.vhd,vhdl,xil_defaultlib,../../../bd/design_1/ip/design_1_axi_uartlite_0_0/sim/design_1_axi_uartlite_0_0.vhd,incdir="../../../../dpp.srcs/sources_1/bd/design_1/ipshared/c923"incdir="../../../../dpp.srcs/sources_1/bd/design_1/ipshared/c923"
microblaze_v11_0_vh_rfs.vhd,vhdl,microblaze_v11_0_1,../../../../dpp.srcs/sources_1/bd/design_1/ipshared/f8c3/hdl/microblaze_v11_0_vh_rfs.vhd,incdir="../../../../dpp.srcs/sources_1/bd/design_1/ipshared/c923"incdir="../../../../dpp.srcs/sources_1/bd/design_1/ipshared/c923"
design_1_microblaze_0_0.vhd,vhdl,xil_defaultlib,../../../bd/design_1/ip/design_1_microblaze_0_0/sim/design_1_microblaze_0_0.vhd,incdir="../../../../dpp.srcs/sources_1/bd/design_1/ipshared/c923"incdir="../../../../dpp.srcs/sources_1/bd/design_1/ipshared/c923"
lmb_v10_v3_0_vh_rfs.vhd,vhdl,lmb_v10_v3_0_9,../../../../dpp.srcs/sources_1/bd/design_1/ipshared/78eb/hdl/lmb_v10_v3_0_vh_rfs.vhd,incdir="../../../../dpp.srcs/sources_1/bd/design_1/ipshared/c923"incdir="../../../../dpp.srcs/sources_1/bd/design_1/ipshared/c923"
design_1_dlmb_v10_0.vhd,vhdl,xil_defaultlib,../../../bd/design_1/ip/design_1_dlmb_v10_0/sim/design_1_dlmb_v10_0.vhd,incdir="../../../../dpp.srcs/sources_1/bd/design_1/ipshared/c923"incdir="../../../../dpp.srcs/sources_1/bd/design_1/ipshared/c923"
design_1_ilmb_v10_0.vhd,vhdl,xil_defaultlib,../../../bd/design_1/ip/design_1_ilmb_v10_0/sim/design_1_ilmb_v10_0.vhd,incdir="../../../../dpp.srcs/sources_1/bd/design_1/ipshared/c923"incdir="../../../../dpp.srcs/sources_1/bd/design_1/ipshared/c923"
lmb_bram_if_cntlr_v4_0_vh_rfs.vhd,vhdl,lmb_bram_if_cntlr_v4_0_16,../../../../dpp.srcs/sources_1/bd/design_1/ipshared/6335/hdl/lmb_bram_if_cntlr_v4_0_vh_rfs.vhd,incdir="../../../../dpp.srcs/sources_1/bd/design_1/ipshared/c923"incdir="../../../../dpp.srcs/sources_1/bd/design_1/ipshared/c923"
design_1_dlmb_bram_if_cntlr_0.vhd,vhdl,xil_defaultlib,../../../bd/design_1/ip/design_1_dlmb_bram_if_cntlr_0/sim/design_1_dlmb_bram_if_cntlr_0.vhd,incdir="../../../../dpp.srcs/sources_1/bd/design_1/ipshared/c923"incdir="../../../../dpp.srcs/sources_1/bd/design_1/ipshared/c923"
design_1_ilmb_bram_if_cntlr_0.vhd,vhdl,xil_defaultlib,../../../bd/design_1/ip/design_1_ilmb_bram_if_cntlr_0/sim/design_1_ilmb_bram_if_cntlr_0.vhd,incdir="../../../../dpp.srcs/sources_1/bd/design_1/ipshared/c923"incdir="../../../../dpp.srcs/sources_1/bd/design_1/ipshared/c923"
blk_mem_gen_v8_4.v,verilog,blk_mem_gen_v8_4_3,../../../../dpp.srcs/sources_1/bd/design_1/ipshared/c001/simulation/blk_mem_gen_v8_4.v,incdir="../../../../dpp.srcs/sources_1/bd/design_1/ipshared/c923"incdir="../../../../dpp.srcs/sources_1/bd/design_1/ipshared/c923"
design_1_lmb_bram_0.v,verilog,xil_defaultlib,../../../bd/design_1/ip/design_1_lmb_bram_0/sim/design_1_lmb_bram_0.v,incdir="../../../../dpp.srcs/sources_1/bd/design_1/ipshared/c923"incdir="../../../../dpp.srcs/sources_1/bd/design_1/ipshared/c923"
mdm_v3_2_vh_rfs.vhd,vhdl,mdm_v3_2_16,../../../../dpp.srcs/sources_1/bd/design_1/ipshared/550e/hdl/mdm_v3_2_vh_rfs.vhd,incdir="../../../../dpp.srcs/sources_1/bd/design_1/ipshared/c923"incdir="../../../../dpp.srcs/sources_1/bd/design_1/ipshared/c923"
design_1_mdm_1_0.vhd,vhdl,xil_defaultlib,../../../bd/design_1/ip/design_1_mdm_1_0/sim/design_1_mdm_1_0.vhd,incdir="../../../../dpp.srcs/sources_1/bd/design_1/ipshared/c923"incdir="../../../../dpp.srcs/sources_1/bd/design_1/ipshared/c923"
proc_sys_reset_v5_0_vh_rfs.vhd,vhdl,proc_sys_reset_v5_0_13,../../../../dpp.srcs/sources_1/bd/design_1/ipshared/8842/hdl/proc_sys_reset_v5_0_vh_rfs.vhd,incdir="../../../../dpp.srcs/sources_1/bd/design_1/ipshared/c923"incdir="../../../../dpp.srcs/sources_1/bd/design_1/ipshared/c923"
design_1_rst_clk_wiz_0_120M_0.vhd,vhdl,xil_defaultlib,../../../bd/design_1/ip/design_1_rst_clk_wiz_0_120M_0/sim/design_1_rst_clk_wiz_0_120M_0.vhd,incdir="../../../../dpp.srcs/sources_1/bd/design_1/ipshared/c923"incdir="../../../../dpp.srcs/sources_1/bd/design_1/ipshared/c923"
design_1.v,verilog,xil_defaultlib,../../../bd/design_1/sim/design_1.v,incdir="../../../../dpp.srcs/sources_1/bd/design_1/ipshared/c923"incdir="../../../../dpp.srcs/sources_1/bd/design_1/ipshared/c923"
glbl.v,Verilog,xil_defaultlib,glbl.v
