Design Route Status
                                               :      # nets :
   ------------------------------------------- : ----------- :
   # of logical nets.......................... :       16805 :
       # of nets not needing routing.......... :        7350 :
           # of internally routed nets........ :        7318 :
           # of nets with no loads............ :          32 :
       # of routable nets..................... :        9455 :
           # of fully routed nets............. :        9455 :
       # of nets with routing errors.......... :           0 :
   ------------------------------------------- : ----------- :

