Copyright 1986-2019 Xilinx, Inc. All Rights Reserved.
---------------------------------------------------------------------------------------------
| Tool Version : Vivado v.2019.1 (win64) Build 2552052 Fri May 24 14:49:42 MDT 2019
| Date         : Sat Feb 13 19:37:50 2021
| Host         : DESKTOP-GMQ0EOB running 64-bit major release  (build 9200)
| Command      : report_control_sets -verbose -file design_1_wrapper_control_sets_placed.rpt
| Design       : design_1_wrapper
| Device       : xc7a35t
---------------------------------------------------------------------------------------------

Control Set Information

Table of Contents
-----------------
1. Summary
2. Histogram
3. Flip-Flop Distribution
4. Detailed Control Set Information

1. Summary
----------

+----------------------------------------------------------+-------+
|                          Status                          | Count |
+----------------------------------------------------------+-------+
| Total control sets                                       |   113 |
|    Minimum number of control sets                        |   113 |
|    Addition due to synthesis replication                 |     0 |
|    Addition due to physical synthesis replication        |     0 |
| Unused register locations in slices containing registers |   238 |
+----------------------------------------------------------+-------+
* Control sets can be merged at opt_design using control_set_merge or merge_equivalent_drivers
** Run report_qor_suggestions for automated merging and remapping suggestions


2. Histogram
------------

+--------------------+-------+
|       Fanout       | Count |
+--------------------+-------+
| Total control sets |   113 |
| >= 0 to < 4        |    12 |
| >= 4 to < 6        |    13 |
| >= 6 to < 8        |    17 |
| >= 8 to < 10       |    35 |
| >= 10 to < 12      |     5 |
| >= 12 to < 14      |     2 |
| >= 14 to < 16      |     0 |
| >= 16              |    29 |
+--------------------+-------+
* Control sets can be remapped at either synth_design or opt_design


3. Flip-Flop Distribution
-------------------------

+--------------+-----------------------+------------------------+-----------------+--------------+
| Clock Enable | Synchronous Set/Reset | Asynchronous Set/Reset | Total Registers | Total Slices |
+--------------+-----------------------+------------------------+-----------------+--------------+
| No           | No                    | No                     |             460 |          184 |
| No           | No                    | Yes                    |              29 |            7 |
| No           | Yes                   | No                     |             314 |          123 |
| Yes          | No                    | No                     |             286 |           82 |
| Yes          | No                    | Yes                    |              15 |            8 |
| Yes          | Yes                   | No                     |             946 |          298 |
+--------------+-----------------------+------------------------+-----------------+--------------+


4. Detailed Control Set Information
-----------------------------------

+------------------------------------------------------------------------+--------------------------------------------------------------------------------------------------------------------------------------------------------------------------------------------------------------------+--------------------------------------------------------------------------------------------------------------------------------------------------------+------------------+----------------+
|                              Clock Signal                              |                                                                                                    Enable Signal                                                                                                   |                                                                    Set/Reset Signal                                                                    | Slice Load Count | Bel Load Count |
+------------------------------------------------------------------------+--------------------------------------------------------------------------------------------------------------------------------------------------------------------------------------------------------------------+--------------------------------------------------------------------------------------------------------------------------------------------------------+------------------+----------------+
| ~design_1_i/ps_mb_0/mdm_1/U0/No_Dbg_Reg_Access.BUFG_DRCK/Ext_JTAG_DRCK | design_1_i/ps_mb_0/mdm_1/U0/MDM_Core_I1/JTAG_CONTROL_I/Use_BSCAN.FDC_I/CE                                                                                                                                          | design_1_i/ps_mb_0/mdm_1/U0/MDM_Core_I1/JTAG_CONTROL_I/Use_BSCAN.FDC_I/D_1                                                                             |                1 |              1 |
|  design_1_i/clk_wiz_0/inst/clk_cpu                                     |                                                                                                                                                                                                                    | design_1_i/ps_mb_0/microblaze_0/U0/MicroBlaze_Core_I/Performance.Core/Use_Debug_Logic.Master_Core.Debug_Perf/capture_1                                 |                1 |              1 |
|  design_1_i/ps_mb_0/mdm_1/U0/No_Dbg_Reg_Access.BUFG_DRCK/Ext_JTAG_DRCK | design_1_i/ps_mb_0/mdm_1/U0/Use_E2.BSCAN_I/Use_BSCAN.PORT_Selector_reg[0]                                                                                                                                          | design_1_i/ps_mb_0/mdm_1/U0/MDM_Core_I1/JTAG_CONTROL_I/sel_with_scan_reset19_out                                                                       |                1 |              1 |
|  design_1_i/ps_mb_0/mdm_1/U0/Use_E2.BSCAN_I/Dbg_Update_0               | design_1_i/ps_mb_0/microblaze_0/U0/MicroBlaze_Core_I/Performance.Core/Use_Debug_Logic.Master_Core.Debug_Perf/Control_Reg_En                                                                                        | design_1_i/ps_mb_0/microblaze_0/U0/MicroBlaze_Core_I/Performance.Core/Use_Debug_Logic.Master_Core.Debug_Perf/Serial_Dbg_Intf.continue_from_brk_reg_n_0 |                1 |              1 |
|  design_1_i/ps_mb_0/mdm_1/U0/Use_E2.BSCAN_I/Dbg_Update_0               | design_1_i/ps_mb_0/microblaze_0/U0/MicroBlaze_Core_I/Performance.Core/Use_Debug_Logic.Master_Core.Debug_Perf/Control_Reg_En                                                                                        | design_1_i/ps_mb_0/microblaze_0/U0/MicroBlaze_Core_I/Performance.Core/Use_Debug_Logic.Master_Core.Debug_Perf/Serial_Dbg_Intf.force_stop_cmd_i_reg_0    |                1 |              1 |
|  design_1_i/ps_mb_0/mdm_1/U0/Use_E2.BSCAN_I/Dbg_Update_0               | design_1_i/ps_mb_0/microblaze_0/U0/MicroBlaze_Core_I/Performance.Core/Use_Debug_Logic.Master_Core.Debug_Perf/Control_Reg_En                                                                                        | design_1_i/ps_mb_0/microblaze_0/U0/MicroBlaze_Core_I/Performance.Core/Use_Debug_Logic.Master_Core.Debug_Perf/Serial_Dbg_Intf.normal_stop_cmd_i_reg_n_0 |                1 |              1 |
|  design_1_i/ps_mb_0/mdm_1/U0/Use_E2.BSCAN_I/Dbg_Update_0               | design_1_i/ps_mb_0/microblaze_0/U0/MicroBlaze_Core_I/Performance.Core/Use_Debug_Logic.Master_Core.Debug_Perf/Control_Reg_En                                                                                        | design_1_i/ps_mb_0/microblaze_0/U0/MicroBlaze_Core_I/Performance.Core/Use_Debug_Logic.Master_Core.Debug_Perf/start_single_step_reg_n_0                 |                1 |              1 |
| ~design_1_i/ps_mb_0/mdm_1/U0/Use_E2.BSCAN_I/Dbg_Update_0               |                                                                                                                                                                                                                    | design_1_i/ps_mb_0/mdm_1/U0/MDM_Core_I1/JTAG_CONTROL_I/sel_n                                                                                           |                1 |              1 |
|  design_1_i/clk_wiz_0/inst/clk_cpu                                     | design_1_i/ps_mb_0/microblaze_0/U0/MicroBlaze_Core_I/Performance.Core/Decode_I/Use_MuxCy[11].OF_Piperun_Stage/MUXCY_I/of_pause_reg                                                                                 |                                                                                                                                                        |                1 |              2 |
|  design_1_i/ps_mb_0/mdm_1/U0/Use_E2.BSCAN_I/Dbg_Update_0               | design_1_i/ps_mb_0/microblaze_0/U0/MicroBlaze_Core_I/Performance.Core/Use_Debug_Logic.Master_Core.Debug_Perf/Command_Reg_En                                                                                        | design_1_i/ps_mb_0/microblaze_0/U0/MicroBlaze_Core_I/Performance.Core/Use_Debug_Logic.Master_Core.Debug_Perf/command_reg_clear                         |                1 |              2 |
|  design_1_i/ps_mb_0/mdm_1/U0/Use_E2.BSCAN_I/Dbg_Update_0               |                                                                                                                                                                                                                    |                                                                                                                                                        |                1 |              3 |
|  design_1_i/clk_wiz_0/inst/clk_cpu                                     | design_1_i/ps_mb_0/axi_intc_0/U0/AXI_LITE_IPIF_I/I_SLAVE_ATTACHMENT/s_axi_rresp_i                                                                                                                                  | design_1_i/ps_mb_0/axi_intc_0/U0/AXI_LITE_IPIF_I/I_SLAVE_ATTACHMENT/rst                                                                                |                1 |              3 |
|  design_1_i/ps_mb_0/mdm_1/U0/Use_E2.BSCAN_I/Dbg_Update_0               | design_1_i/ps_mb_0/mdm_1/U0/MDM_Core_I1/MDM_SEL                                                                                                                                                                    | design_1_i/ps_mb_0/mdm_1/U0/Use_E2.BSCAN_I/AR[0]                                                                                                       |                1 |              4 |
| ~design_1_i/ps_mb_0/mdm_1/U0/Use_E2.BSCAN_I/Dbg_Update_0               |                                                                                                                                                                                                                    | design_1_i/ps_mb_0/mdm_1/U0/Use_E2.BSCAN_I/AR[0]                                                                                                       |                1 |              4 |
|  design_1_i/clk_wiz_0/inst/clk_cpu                                     |                                                                                                                                                                                                                    | design_1_i/ps_mb_0/microblaze_0/U0/MicroBlaze_Core_I/Performance.Core/Decode_I/flush_pipe                                                              |                2 |              4 |
|  design_1_i/clk_wiz_0/inst/clk_cpu                                     | design_1_i/dpp_0/scope/ip_scope_0/inst/axibusdomain_axi_lite_interface/inst/slv_reg_array[1][7]_i_1_n_0                                                                                                            |                                                                                                                                                        |                1 |              4 |
|  design_1_i/clk_wiz_0/inst/clk_cpu                                     |                                                                                                                                                                                                                    | design_1_i/ps_mb_0/axi_intc_0/U0/AXI_LITE_IPIF_I/I_SLAVE_ATTACHMENT/clear                                                                              |                1 |              4 |
|  design_1_i/ps_mb_0/mdm_1/U0/No_Dbg_Reg_Access.BUFG_DRCK/Ext_JTAG_DRCK | design_1_i/ps_mb_0/mdm_1/U0/MDM_Core_I1/p_3_out                                                                                                                                                                    | design_1_i/ps_mb_0/mdm_1/U0/Use_E2.BSCAN_I/AR[0]                                                                                                       |                1 |              4 |
|  design_1_i/clk_wiz_0/inst/clk_cpu                                     | design_1_i/mb_periph_0/axi_uartlite_0/U0/AXI_LITE_IPIF_I/I_SLAVE_ATTACHMENT/start2                                                                                                                                 | design_1_i/mb_periph_0/axi_uartlite_0/U0/AXI_LITE_IPIF_I/I_SLAVE_ATTACHMENT/I_DECODER/cs_ce_clr                                                        |                1 |              4 |
|  design_1_i/clk_wiz_0/inst/clk_cpu                                     | design_1_i/dpp_0/scope/ip_scope_0/inst/axibusdomain_axi_lite_interface/inst/slv_reg_array[2][7]_i_1_n_0                                                                                                            |                                                                                                                                                        |                1 |              4 |
|  design_1_i/clk_wiz_0/inst/clk_cpu                                     | design_1_i/mb_periph_0/axi_uartlite_0/U0/UARTLITE_CORE_I/BAUD_RATE_I/p_2_out[0]                                                                                                                                    |                                                                                                                                                        |                1 |              4 |
|  design_1_i/clk_wiz_0/inst/clk_cpu                                     |                                                                                                                                                                                                                    | design_1_i/ps_mb_0/rst_clk_wiz_0_120M/U0/EXT_LPF/lpf_int                                                                                               |                4 |              5 |
|  design_1_i/clk_wiz_0/inst/clk_cpu                                     |                                                                                                                                                                                                                    | design_1_i/dpp_0/scope/ip_scope_0/inst/axibusdomain_axi_lite_interface/inst/p_0_in                                                                     |                3 |              5 |
|  design_1_i/clk_wiz_0/inst/clk_cpu                                     | design_1_i/ps_mb_0/microblaze_0/U0/MicroBlaze_Core_I/Performance.Core/Decode_I/wb_Halted                                                                                                                           | design_1_i/ps_mb_0/microblaze_0/U0/MicroBlaze_Core_I/sync_reset                                                                                        |                2 |              5 |
|  design_1_i/ps_mb_0/mdm_1/U0/Use_E2.BSCAN_I/Dbg_Update_0               | design_1_i/ps_mb_0/microblaze_0/U0/MicroBlaze_Core_I/Performance.Core/Use_Debug_Logic.Master_Core.Debug_Perf/Control_Reg_En                                                                                        |                                                                                                                                                        |                1 |              5 |
|  design_1_i/clk_wiz_0/inst/clk_cpu                                     | design_1_i/dpp_0/scope/ip_scope_0/inst/axibusdomain_axi_lite_interface/inst/axi_awready0                                                                                                                           | design_1_i/dpp_0/scope/ip_scope_0/inst/axibusdomain_axi_lite_interface/inst/p_0_in                                                                     |                2 |              6 |
|  design_1_i/ps_mb_0/mdm_1/U0/No_Dbg_Reg_Access.BUFG_DRCK/Ext_JTAG_DRCK | design_1_i/ps_mb_0/mdm_1/U0/Use_E2.BSCAN_I/Use_BSCAN.command_reg[5][0]                                                                                                                                             |                                                                                                                                                        |                2 |              6 |
|  design_1_i/ps_mb_0/mdm_1/U0/No_Dbg_Reg_Access.BUFG_DRCK/Ext_JTAG_DRCK | design_1_i/ps_mb_0/mdm_1/U0/Use_E2.BSCAN_I/E[0]                                                                                                                                                                    |                                                                                                                                                        |                2 |              6 |
|  design_1_i/clk_wiz_0/inst/clk_cpu                                     |                                                                                                                                                                                                                    | design_1_i/mb_periph_0/axi_uartlite_0/U0/UARTLITE_CORE_I/UARTLITE_RX_I/SRL_FIFO_I/I_SRL_FIFO_RBU_F/CNTR_INCR_DECR_ADDN_F_I/SS[0]                       |                2 |              6 |
|  design_1_i/clk_wiz_0/inst/clk_cpu                                     | design_1_i/ps_mb_0/rst_clk_wiz_0_120M/U0/SEQ/seq_cnt_en                                                                                                                                                            | design_1_i/ps_mb_0/rst_clk_wiz_0_120M/U0/SEQ/SEQ_COUNTER/clear                                                                                         |                1 |              6 |
|  design_1_i/clk_wiz_0/inst/clk_cpu                                     |                                                                                                                                                                                                                    | design_1_i/mb_periph_0/axi_uartlite_0/U0/UARTLITE_CORE_I/UARTLITE_TX_I/SRL_FIFO_I/I_SRL_FIFO_RBU_F/CNTR_INCR_DECR_ADDN_F_I/SS[0]                       |                2 |              6 |
|  design_1_i/clk_wiz_0/inst/clk_cpu                                     | design_1_i/dpp_0/scope/ip_scope_0/inst/axibusdomain_axi_lite_interface/inst/slv_reg_array[1][15]_i_1_n_0                                                                                                           |                                                                                                                                                        |                2 |              6 |
|  design_1_i/ps_mb_0/mdm_1/U0/No_Dbg_Reg_Access.BUFG_DRCK/Ext_JTAG_DRCK | design_1_i/ps_mb_0/mdm_1/U0/MDM_Core_I1/JTAG_CONTROL_I/Use_BSCAN.FDC_I/Use_BSCAN.command_reg[5][0]                                                                                                                 |                                                                                                                                                        |                1 |              6 |
|  design_1_i/clk_wiz_0/inst/clk_cpu                                     | design_1_i/dpp_0/scope/ip_scope_0/inst/axibusdomain_axi_lite_interface/inst/axi_arready0                                                                                                                           | design_1_i/dpp_0/scope/ip_scope_0/inst/axibusdomain_axi_lite_interface/inst/p_0_in                                                                     |                1 |              6 |
|  design_1_i/clk_wiz_0/inst/clk_cpu                                     | design_1_i/dpp_0/scope/ip_scope_0/inst/axibusdomain_axi_lite_interface/inst/slv_reg_array[3][15]_i_1_n_0                                                                                                           |                                                                                                                                                        |                2 |              6 |
|  design_1_i/clk_wiz_0/inst/clk_cpu                                     | design_1_i/dpp_0/scope/ip_scope_0/inst/axibusdomain_axi_lite_interface/inst/slv_reg_array[2][15]_i_1_n_0                                                                                                           |                                                                                                                                                        |                2 |              6 |
|  design_1_i/clk_wiz_0/inst/clk_cpu                                     | design_1_i/dpp_0/scope/ip_scope_0/inst/axibusdomain_axi_lite_interface/inst/slv_reg_array[0][7]_i_2_n_0                                                                                                            | design_1_i/dpp_0/scope/ip_scope_0/inst/axibusdomain_axi_lite_interface/inst/slv_reg_array[0][7]_i_1_n_0                                                |                1 |              7 |
|  design_1_i/clk_wiz_0/inst/clk_cpu                                     | design_1_i/dpp_0/scope/ip_scope_0/inst/axibusdomain_axi_lite_interface/inst/slv_reg_array[4][7]_i_2_n_0                                                                                                            | design_1_i/dpp_0/scope/ip_scope_0/inst/axibusdomain_axi_lite_interface/inst/slv_reg_array[4][7]_i_1_n_0                                                |                1 |              7 |
|  design_1_i/clk_wiz_0/inst/clk_cpu                                     | design_1_i/dpp_0/scope/ip_scope_0/inst/axibusdomain_axi_lite_interface/inst/slv_reg_array[6][7]_i_2_n_0                                                                                                            | design_1_i/dpp_0/scope/ip_scope_0/inst/axibusdomain_axi_lite_interface/inst/slv_reg_array[6][7]_i_1_n_0                                                |                2 |              7 |
|  design_1_i/clk_wiz_0/inst/clk_cpu                                     | design_1_i/mb_periph_0/axi_uartlite_0/U0/UARTLITE_CORE_I/BAUD_RATE_I/p_2_out[0]                                                                                                                                    | design_1_i/mb_periph_0/axi_uartlite_0/U0/UARTLITE_CORE_I/UARTLITE_RX_I/SERIAL_TO_PARALLEL[8].fifo_din[8]_i_1_n_0                                       |                2 |              7 |
|  design_1_i/clk_wiz_0/inst/clk_cpu                                     | design_1_i/dpp_0/scope/ip_scope_0/inst/axibusdomain_axi_lite_interface/inst/slv_reg_array[5][7]_i_2_n_0                                                                                                            | design_1_i/dpp_0/scope/ip_scope_0/inst/axibusdomain_axi_lite_interface/inst/slv_reg_array[5][7]_i_1_n_0                                                |                2 |              7 |
|  design_1_i/clk_wiz_0/inst/clk_cpu                                     | design_1_i/dpp_0/scope/ip_scope_0/inst/axibusdomain_axi_lite_interface/inst/slv_reg_array[3][7]_i_1_n_0                                                                                                            |                                                                                                                                                        |                4 |              7 |
|  design_1_i/clk_wiz_0/inst/clk_cpu                                     | design_1_i/dpp_0/scope/ip_scope_0/inst/axibusdomain_axi_lite_interface/inst/slv_reg_array[5][23]_i_2_n_0                                                                                                           | design_1_i/dpp_0/scope/ip_scope_0/inst/axibusdomain_axi_lite_interface/inst/slv_reg_array[5][23]_i_1_n_0                                               |                1 |              8 |
|  design_1_i/clk_wiz_0/inst/clk_cpu                                     | design_1_i/dpp_0/scope/ip_scope_0/inst/axibusdomain_axi_lite_interface/inst/slv_reg_array[6][15]_i_2_n_0                                                                                                           | design_1_i/dpp_0/scope/ip_scope_0/inst/axibusdomain_axi_lite_interface/inst/slv_reg_array[6][15]_i_1_n_0                                               |                2 |              8 |
|  design_1_i/clk_wiz_0/inst/clk_cpu                                     | design_1_i/dpp_0/scope/ip_scope_0/inst/axibusdomain_axi_lite_interface/inst/slv_reg_array[3][23]_i_1_n_0                                                                                                           |                                                                                                                                                        |                4 |              8 |
|  design_1_i/clk_wiz_0/inst/clk_cpu                                     | design_1_i/dpp_0/scope/ip_scope_0/inst/axibusdomain_axi_lite_interface/inst/slv_reg_array[5][31]_i_2_n_0                                                                                                           | design_1_i/dpp_0/scope/ip_scope_0/inst/axibusdomain_axi_lite_interface/inst/slv_reg_array[5][31]_i_1_n_0                                               |                1 |              8 |
|  design_1_i/clk_wiz_0/inst/clk_cpu                                     | design_1_i/dpp_0/scope/ip_scope_0/inst/axibusdomain_axi_lite_interface/inst/slv_reg_array[4][23]_i_2_n_0                                                                                                           | design_1_i/dpp_0/scope/ip_scope_0/inst/axibusdomain_axi_lite_interface/inst/slv_reg_array[4][23]_i_1_n_0                                               |                1 |              8 |
|  design_1_i/clk_wiz_0/inst/clk_cpu                                     | design_1_i/dpp_0/scope/ip_scope_0/inst/axibusdomain_axi_lite_interface/inst/slv_reg_array[4][31]_i_2_n_0                                                                                                           | design_1_i/dpp_0/scope/ip_scope_0/inst/axibusdomain_axi_lite_interface/inst/slv_reg_array[4][31]_i_1_n_0                                               |                1 |              8 |
|  design_1_i/clk_wiz_0/inst/clk_cpu                                     | design_1_i/dpp_0/scope/ip_scope_0/inst/axibusdomain_axi_lite_interface/inst/slv_reg_array[6][31]_i_2_n_0                                                                                                           | design_1_i/dpp_0/scope/ip_scope_0/inst/axibusdomain_axi_lite_interface/inst/slv_reg_array[6][31]_i_1_n_0                                               |                2 |              8 |
|  design_1_i/clk_wiz_0/inst/clk_cpu                                     | design_1_i/dpp_0/pulse_offseting/invert_and_offset_0/U0/invert_and_offset_v1_0_S00_AXI_inst/p_1_in[14]                                                                                                             | design_1_i/dpp_0/pulse_offseting/invert_and_offset_0/U0/invert_and_offset_v1_0_S00_AXI_inst/axi_awready_i_1_n_0                                        |                4 |              8 |
|  design_1_i/clk_wiz_0/inst/clk_cpu                                     | design_1_i/dpp_0/pulse_offseting/invert_and_offset_0/U0/invert_and_offset_v1_0_S00_AXI_inst/p_1_in[31]                                                                                                             | design_1_i/dpp_0/pulse_offseting/invert_and_offset_0/U0/invert_and_offset_v1_0_S00_AXI_inst/axi_awready_i_1_n_0                                        |                1 |              8 |
|  design_1_i/clk_wiz_0/inst/clk_cpu                                     | design_1_i/dpp_0/pulse_offseting/invert_and_offset_0/U0/invert_and_offset_v1_0_S00_AXI_inst/p_1_in[7]                                                                                                              | design_1_i/dpp_0/pulse_offseting/invert_and_offset_0/U0/invert_and_offset_v1_0_S00_AXI_inst/axi_awready_i_1_n_0                                        |                4 |              8 |
|  design_1_i/clk_wiz_0/inst/clk_cpu                                     | design_1_i/dpp_0/pulse_offseting/invert_and_offset_0/U0/invert_and_offset_v1_0_S00_AXI_inst/p_1_in[23]                                                                                                             | design_1_i/dpp_0/pulse_offseting/invert_and_offset_0/U0/invert_and_offset_v1_0_S00_AXI_inst/axi_awready_i_1_n_0                                        |                2 |              8 |
|  design_1_i/clk_wiz_0/inst/clk_cpu                                     | design_1_i/dpp_0/scope/ip_scope_0/inst/axibusdomain_axi_lite_interface/inst/slv_reg_array[0][15]_i_2_n_0                                                                                                           | design_1_i/dpp_0/scope/ip_scope_0/inst/axibusdomain_axi_lite_interface/inst/slv_reg_array[0][15]_i_1_n_0                                               |                3 |              8 |
|  design_1_i/clk_wiz_0/inst/clk_cpu                                     | design_1_i/dpp_0/scope/ip_scope_0/inst/axibusdomain_axi_lite_interface/inst/slv_reg_array[0][23]_i_2_n_0                                                                                                           | design_1_i/dpp_0/scope/ip_scope_0/inst/axibusdomain_axi_lite_interface/inst/slv_reg_array[0][23]_i_1_n_0                                               |                1 |              8 |
|  design_1_i/clk_wiz_0/inst/clk_cpu                                     | design_1_i/dpp_0/scope/ip_scope_0/inst/axibusdomain_axi_lite_interface/inst/slv_reg_array[0][31]_i_2_n_0                                                                                                           | design_1_i/dpp_0/scope/ip_scope_0/inst/axibusdomain_axi_lite_interface/inst/slv_reg_array[0][31]_i_1_n_0                                               |                1 |              8 |
|  design_1_i/clk_wiz_0/inst/clk_cpu                                     | design_1_i/dpp_0/scope/ip_scope_0/inst/axibusdomain_axi_lite_interface/inst/slv_reg_array[6][23]_i_2_n_0                                                                                                           | design_1_i/dpp_0/scope/ip_scope_0/inst/axibusdomain_axi_lite_interface/inst/slv_reg_array[6][23]_i_1_n_0                                               |                2 |              8 |
|  design_1_i/clk_wiz_0/inst/clk_cpu                                     | design_1_i/dpp_0/scope/ip_mux16_2_if_0/U0/ip_mux16_2_v1_0_S00_AXI_inst/p_1_in[15]                                                                                                                                  | design_1_i/dpp_0/scope/ip_mux16_2_if_0/U0/ip_mux16_2_v1_0_S00_AXI_inst/p_0_in                                                                          |                2 |              8 |
|  design_1_i/clk_wiz_0/inst/clk_cpu                                     | design_1_i/dpp_0/scope/ip_mux16_2_if_0/U0/ip_mux16_2_v1_0_S00_AXI_inst/p_1_in[3]                                                                                                                                   | design_1_i/dpp_0/scope/ip_mux16_2_if_0/U0/ip_mux16_2_v1_0_S00_AXI_inst/p_0_in                                                                          |                3 |              8 |
|  design_1_i/clk_wiz_0/inst/clk_cpu                                     | design_1_i/dpp_0/scope/ip_mux16_2_if_0/U0/ip_mux16_2_v1_0_S00_AXI_inst/p_1_in[23]                                                                                                                                  | design_1_i/dpp_0/scope/ip_mux16_2_if_0/U0/ip_mux16_2_v1_0_S00_AXI_inst/p_0_in                                                                          |                2 |              8 |
|  design_1_i/clk_wiz_0/inst/clk_cpu                                     | design_1_i/mb_periph_0/axi_uartlite_0/U0/AXI_LITE_IPIF_I/I_SLAVE_ATTACHMENT/I_DECODER/fifo_wr                                                                                                                      |                                                                                                                                                        |                1 |              8 |
|  design_1_i/clk_wiz_0/inst/clk_cpu                                     | design_1_i/mb_periph_0/axi_uartlite_0/U0/AXI_LITE_IPIF_I/I_SLAVE_ATTACHMENT/s_axi_rresp_i                                                                                                                          | design_1_i/mb_periph_0/axi_uartlite_0/U0/AXI_LITE_IPIF_I/I_SLAVE_ATTACHMENT/rst                                                                        |                3 |              8 |
|  design_1_i/clk_wiz_0/inst/clk_cpu                                     | design_1_i/mb_periph_0/axi_uartlite_0/U0/UARTLITE_CORE_I/UARTLITE_RX_I/SRL_FIFO_I/I_SRL_FIFO_RBU_F/DYNSHREG_F_I/fifo_wr                                                                                            |                                                                                                                                                        |                1 |              8 |
|  design_1_i/clk_wiz_0/inst/clk_cpu                                     | design_1_i/ps_mb_0/axi_intc_0/U0/AXI_LITE_IPIF_I/I_SLAVE_ATTACHMENT/bus2ip_addr_i[8]_i_1_n_0                                                                                                                       | design_1_i/ps_mb_0/axi_intc_0/U0/AXI_LITE_IPIF_I/I_SLAVE_ATTACHMENT/rst                                                                                |                3 |              8 |
|  design_1_i/clk_wiz_0/inst/clk_cpu                                     | design_1_i/dpp_0/scope/ip_mux16_2_if_0/U0/ip_mux16_2_v1_0_S00_AXI_inst/p_1_in[31]                                                                                                                                  | design_1_i/dpp_0/scope/ip_mux16_2_if_0/U0/ip_mux16_2_v1_0_S00_AXI_inst/p_0_in                                                                          |                2 |              8 |
|  design_1_i/ps_mb_0/mdm_1/U0/No_Dbg_Reg_Access.BUFG_DRCK/Ext_JTAG_DRCK | design_1_i/ps_mb_0/microblaze_0/U0/MicroBlaze_Core_I/Performance.Core/Use_Debug_Logic.Master_Core.Debug_Perf/Using_PC_Breakpoints.All_PC_Brks[0].Serial_Interface_1.address_hit_I/Compare[0].SRLC16E_I/which_pc__0 |                                                                                                                                                        |                7 |              8 |
|  design_1_i/ps_mb_0/mdm_1/U0/No_Dbg_Reg_Access.BUFG_DRCK/Ext_JTAG_DRCK | design_1_i/ps_mb_0/mdm_1/U0/MDM_Core_I1/JTAG_CONTROL_I/tdi_shifter0                                                                                                                                                |                                                                                                                                                        |                2 |              8 |
| ~design_1_i/ps_mb_0/mdm_1/U0/Use_E2.BSCAN_I/Dbg_Update_0               | design_1_i/ps_mb_0/mdm_1/U0/MDM_Core_I1/JTAG_CONTROL_I/Use_BSCAN.command[0]_i_1_n_0                                                                                                                                |                                                                                                                                                        |                2 |              8 |
|  design_1_i/ps_mb_0/mdm_1/U0/Use_E2.BSCAN_I/Dbg_Update_0               | design_1_i/ps_mb_0/mdm_1/U0/MDM_Core_I1/JTAG_CONTROL_I/Use_BSCAN.FDC_I/Use_BSCAN.PORT_Selector_reg[2][0]                                                                                                           |                                                                                                                                                        |                1 |              8 |
|  design_1_i/clk_wiz_0/inst/clk_cpu                                     |                                                                                                                                                                                                                    | design_1_i/ps_mb_0/axi_intc_0/U0/INTC_CORE_I/p_0_in                                                                                                    |                4 |              8 |
|  design_1_i/clk_wiz_0/inst/clk_cpu                                     | design_1_i/dpp_0/scope/ip_scope_0/inst/axibusdomain_axi_lite_interface/inst/slv_reg_array[3][31]_i_1_n_0                                                                                                           |                                                                                                                                                        |                2 |              8 |
|  design_1_i/clk_wiz_0/inst/clk_cpu                                     | design_1_i/dpp_0/scope/ip_scope_0/inst/axibusdomain_axi_lite_interface/inst/slv_reg_array[2][23]_i_1_n_0                                                                                                           |                                                                                                                                                        |                2 |              8 |
|  design_1_i/clk_wiz_0/inst/clk_cpu                                     | design_1_i/dpp_0/scope/ip_scope_0/inst/axibusdomain_axi_lite_interface/inst/slv_reg_array[1][23]_i_1_n_0                                                                                                           |                                                                                                                                                        |                2 |              8 |
|  design_1_i/clk_wiz_0/inst/clk_cpu                                     | design_1_i/dpp_0/scope/ip_scope_0/inst/axibusdomain_axi_lite_interface/inst/slv_reg_array[1][31]_i_1_n_0                                                                                                           |                                                                                                                                                        |                3 |              8 |
|  design_1_i/clk_wiz_0/inst/clk_cpu                                     | design_1_i/dpp_0/scope/ip_scope_0/inst/axibusdomain_axi_lite_interface/inst/slv_reg_array[5][15]_i_2_n_0                                                                                                           | design_1_i/dpp_0/scope/ip_scope_0/inst/axibusdomain_axi_lite_interface/inst/slv_reg_array[5][15]_i_1_n_0                                               |                2 |              8 |
|  design_1_i/clk_wiz_0/inst/clk_cpu                                     | design_1_i/dpp_0/scope/ip_scope_0/inst/axibusdomain_axi_lite_interface/inst/slv_reg_array[4][15]_i_2_n_0                                                                                                           | design_1_i/dpp_0/scope/ip_scope_0/inst/axibusdomain_axi_lite_interface/inst/slv_reg_array[4][15]_i_1_n_0                                               |                2 |              8 |
|  design_1_i/clk_wiz_0/inst/clk_cpu                                     | design_1_i/dpp_0/scope/ip_scope_0/inst/axibusdomain_axi_lite_interface/inst/slv_reg_array[2][31]_i_1_n_0                                                                                                           |                                                                                                                                                        |                2 |              8 |
|  design_1_i/clk_wiz_0/inst/clk_cpu                                     |                                                                                                                                                                                                                    | design_1_i/mb_periph_0/axi_uartlite_0/U0/AXI_LITE_IPIF_I/I_SLAVE_ATTACHMENT/rst                                                                        |                3 |             10 |
|  design_1_i/ps_mb_0/mdm_1/U0/No_Dbg_Reg_Access.BUFG_DRCK/Ext_JTAG_DRCK | design_1_i/ps_mb_0/mdm_1/U0/MDM_Core_I1/JTAG_CONTROL_I/Use_BSCAN.FDC_I/E[0]                                                                                                                                        |                                                                                                                                                        |                4 |             10 |
|  design_1_i/clk_wiz_0/inst/clk_cpu                                     |                                                                                                                                                                                                                    | design_1_i/dpp_0/pulse_offseting/invert_and_offset_0/U0/invert_and_offset_v1_0_S00_AXI_inst/axi_awready_i_1_n_0                                        |                3 |             10 |
|  design_1_i/clk_wiz_0/inst/clk_cpu                                     |                                                                                                                                                                                                                    | design_1_i/dpp_0/scope/ip_mux16_2_if_0/U0/ip_mux16_2_v1_0_S00_AXI_inst/p_0_in                                                                          |                4 |             10 |
|  design_1_i/clk_wiz_0/inst/clk_cpu                                     |                                                                                                                                                                                                                    | design_1_i/ps_mb_0/axi_intc_0/U0/AXI_LITE_IPIF_I/I_SLAVE_ATTACHMENT/rst                                                                                |                5 |             11 |
|  design_1_i/clk_wiz_0/inst/clk_dpp                                     |                                                                                                                                                                                                                    | design_1_i/dpp_0/scope/ip_scope_0/inst/ip_scope_struct/signaldomain/leveltriggerfifocontroller/mcode/wm_8_20_reg_inv_n_0                               |                3 |             12 |
|  design_1_i/clk_wiz_0/inst/clk_cpu                                     |                                                                                                                                                                                                                    | design_1_i/ps_mb_0/microblaze_0_axi_periph/xbar/inst/gen_sasd.crossbar_sasd_0/addr_arbiter_inst/SR[0]                                                  |                4 |             13 |
|  design_1_i/clk_wiz_0/inst/clk_cpu                                     | design_1_i/ps_mb_0/microblaze_0/U0/MicroBlaze_Core_I/Performance.Core/Decode_I/PreFetch_Buffer_I1/Instruction_Prefetch_Mux[4].Gen_Instr_DFF/Using_FPGA.Native_1[0]                                                 | design_1_i/ps_mb_0/microblaze_0/U0/MicroBlaze_Core_I/sync_reset                                                                                        |                4 |             16 |
|  design_1_i/clk_wiz_0/inst/clk_cpu                                     | design_1_i/ps_mb_0/axi_intc_0/U0/AXI_LITE_IPIF_I/I_SLAVE_ATTACHMENT/start2                                                                                                                                         | design_1_i/ps_mb_0/axi_intc_0/U0/AXI_LITE_IPIF_I/I_SLAVE_ATTACHMENT/I_DECODER/cs_ce_clr                                                                |                6 |             19 |
|  design_1_i/clk_wiz_0/inst/clk_cpu                                     | design_1_i/ps_mb_0/microblaze_0/U0/MicroBlaze_Core_I/Performance.Core/Decode_I/mem_wait_on_ready_N_carry_or/MUXCY_I/lopt_1                                                                                         | design_1_i/ps_mb_0/microblaze_0/U0/MicroBlaze_Core_I/sync_reset                                                                                        |                6 |             21 |
|  design_1_i/ps_mb_0/mdm_1/U0/No_Dbg_Reg_Access.BUFG_DRCK/Ext_JTAG_DRCK |                                                                                                                                                                                                                    | design_1_i/ps_mb_0/mdm_1/U0/Use_E2.BSCAN_I/shift_n_reset1_out                                                                                          |                4 |             23 |
|  design_1_i/clk_wiz_0/inst/clk_cpu                                     |                                                                                                                                                                                                                    | design_1_i/mb_periph_0/axi_uartlite_0/U0/UARTLITE_CORE_I/UARTLITE_RX_I/SR[0]                                                                           |                8 |             24 |
|  design_1_i/clk_wiz_0/inst/clk_cpu                                     | design_1_i/ps_mb_0/microblaze_0_axi_periph/xbar/inst/gen_sasd.crossbar_sasd_0/addr_arbiter_inst/p_0_in1_in                                                                                                         | design_1_i/ps_mb_0/microblaze_0_axi_periph/xbar/inst/gen_sasd.crossbar_sasd_0/addr_arbiter_inst/SR[0]                                                  |                8 |             25 |
|  design_1_i/clk_wiz_0/inst/clk_cpu                                     | design_1_i/mb_periph_0/axi_uartlite_0/U0/UARTLITE_CORE_I/BAUD_RATE_I/p_2_out[0]                                                                                                                                    | design_1_i/mb_periph_0/axi_uartlite_0/U0/UARTLITE_CORE_I/UARTLITE_RX_I/SR[0]                                                                           |                5 |             28 |
|  design_1_i/clk_wiz_0/inst/clk_cpu                                     |                                                                                                                                                                                                                    | design_1_i/ps_mb_0/microblaze_0/U0/MicroBlaze_Core_I/Performance.Core/p_1_out                                                                          |               12 |             32 |
|  design_1_i/clk_wiz_0/inst/clk_cpu                                     | design_1_i/dpp_0/scope/ip_scope_0/inst/axibusdomain_axi_lite_interface/inst/slv_reg_rden__0                                                                                                                        | design_1_i/dpp_0/scope/ip_scope_0/inst/axibusdomain_axi_lite_interface/inst/p_0_in                                                                     |               19 |             32 |
|  design_1_i/clk_wiz_0/inst/clk_cpu                                     | design_1_i/ps_mb_0/microblaze_0_axi_periph/xbar/inst/gen_sasd.crossbar_sasd_0/addr_arbiter_inst/s_axi_rvalid[0]                                                                                                    | design_1_i/ps_mb_0/microblaze_0/U0/MicroBlaze_Core_I/sync_reset                                                                                        |               13 |             32 |
|  design_1_i/clk_wiz_0/inst/clk_cpu                                     | design_1_i/dpp_0/scope/ip_mux16_2_if_0/U0/ip_mux16_2_v1_0_S00_AXI_inst/slv_reg_rden                                                                                                                                | design_1_i/dpp_0/scope/ip_mux16_2_if_0/U0/ip_mux16_2_v1_0_S00_AXI_inst/axi_rdata[31]_i_1_n_0                                                           |                7 |             32 |
|  design_1_i/clk_wiz_0/inst/clk_cpu                                     | design_1_i/ps_mb_0/microblaze_0/U0/MicroBlaze_Core_I/Performance.Core/Decode_I/PreFetch_Buffer_I1/Gen_Mux_Select_LUT6[2].Gen_Sel_DFF/Using_FPGA.Native_0[0]                                                        | design_1_i/ps_mb_0/microblaze_0/U0/MicroBlaze_Core_I/sync_reset                                                                                        |                7 |             32 |
|  design_1_i/clk_wiz_0/inst/clk_cpu                                     | design_1_i/dpp_0/pulse_offseting/invert_and_offset_0/U0/invert_and_offset_v1_0_S00_AXI_inst/slv_reg_rden                                                                                                           | design_1_i/dpp_0/pulse_offseting/invert_and_offset_0/U0/invert_and_offset_v1_0_S00_AXI_inst/axi_rdata[31]_i_1_n_0                                      |                7 |             32 |
|  design_1_i/ps_mb_0/mdm_1/U0/No_Dbg_Reg_Access.BUFG_DRCK/Ext_JTAG_DRCK | design_1_i/ps_mb_0/microblaze_0/U0/MicroBlaze_Core_I/Performance.Core/Use_Debug_Logic.Master_Core.Debug_Perf/New_Dbg_Instr_TCK                                                                                     |                                                                                                                                                        |               12 |             32 |
|  design_1_i/clk_wiz_0/inst/clk_cpu                                     | design_1_i/ps_mb_0/microblaze_0/U0/MicroBlaze_Core_I/Performance.Core/Decode_I/mem_wait_on_ready_N_carry_or/MUXCY_I/lopt_1                                                                                         |                                                                                                                                                        |                6 |             32 |
|  design_1_i/clk_wiz_0/inst/clk_cpu                                     | design_1_i/ps_mb_0/microblaze_0/U0/MicroBlaze_Core_I/Performance.Core/Use_Debug_Logic.Master_Core.Debug_Perf/data_rd_reg[0]_i_1_n_0                                                                                | design_1_i/ps_mb_0/microblaze_0/U0/MicroBlaze_Core_I/sync_reset                                                                                        |               11 |             32 |
|  design_1_i/clk_wiz_0/inst/clk_cpu                                     | design_1_i/ps_mb_0/microblaze_0/U0/MicroBlaze_Core_I/Performance.Core/Decode_I/mem_wait_on_ready_N_carry_or/MUXCY_I/lopt_1                                                                                         | design_1_i/ps_mb_0/microblaze_0/U0/MicroBlaze_Core_I/Performance.Core/Decode_I/SR[0]                                                                   |               12 |             32 |
|  design_1_i/clk_wiz_0/inst/clk_cpu                                     | design_1_i/ps_mb_0/microblaze_0/U0/MicroBlaze_Core_I/Performance.Core/Decode_I/Use_MuxCy[3].OF_Piperun_Stage/MUXCY_I/Using_FPGA.Native_0                                                                           | design_1_i/ps_mb_0/microblaze_0/U0/MicroBlaze_Core_I/Performance.Core/Decode_I/R                                                                       |               14 |             32 |
|  design_1_i/clk_wiz_0/inst/clk_cpu                                     | design_1_i/ps_mb_0/microblaze_0/U0/MicroBlaze_Core_I/Performance.Core/Decode_I/Use_MuxCy[3].OF_Piperun_Stage/MUXCY_I/wb_exception_i_reg_0[0]                                                                       | design_1_i/ps_mb_0/microblaze_0/U0/MicroBlaze_Core_I/sync_reset                                                                                        |                6 |             32 |
|  design_1_i/clk_wiz_0/inst/clk_cpu                                     | design_1_i/ps_mb_0/microblaze_0_axi_periph/xbar/inst/gen_sasd.crossbar_sasd_0/addr_arbiter_inst/E[0]                                                                                                               |                                                                                                                                                        |                7 |             33 |
|  design_1_i/ps_mb_0/mdm_1/U0/No_Dbg_Reg_Access.BUFG_DRCK/Ext_JTAG_DRCK | design_1_i/ps_mb_0/mdm_1/U0/Use_E2.BSCAN_I/Use_BSCAN.PORT_Selector_reg[0]                                                                                                                                          |                                                                                                                                                        |               13 |             47 |
|  design_1_i/clk_wiz_0/inst/clk_cpu                                     | design_1_i/ps_mb_0/microblaze_0/U0/MicroBlaze_Core_I/Performance.Core/Decode_I/PreFetch_Buffer_I1/Instruction_Prefetch_Mux[42].Instr_Mux_MUXF7/IReady_0                                                            |                                                                                                                                                        |               11 |             75 |
|  design_1_i/ps_mb_0/mdm_1/U0/No_Dbg_Reg_Access.BUFG_DRCK/Ext_JTAG_DRCK |                                                                                                                                                                                                                    |                                                                                                                                                        |               27 |             80 |
|  design_1_i/clk_wiz_0/inst/clk_cpu                                     | design_1_i/ps_mb_0/microblaze_0/U0/MicroBlaze_Core_I/Performance.Core/Decode_I/Use_MuxCy[3].OF_Piperun_Stage/MUXCY_I/Using_FPGA.Native_0                                                                           | design_1_i/ps_mb_0/microblaze_0/U0/MicroBlaze_Core_I/sync_reset                                                                                        |               32 |             86 |
|  design_1_i/clk_wiz_0/inst/clk_cpu                                     | design_1_i/ps_mb_0/microblaze_0/U0/MicroBlaze_Core_I/Performance.Core/Decode_I/Performance_Debug_Control.dbg_state_nohalt_reg[27]                                                                                  |                                                                                                                                                        |               16 |            128 |
|  design_1_i/clk_wiz_0/inst/clk_cpu                                     |                                                                                                                                                                                                                    | design_1_i/ps_mb_0/microblaze_0/U0/MicroBlaze_Core_I/sync_reset                                                                                        |               63 |            154 |
|  design_1_i/clk_wiz_0/inst/clk_dpp                                     |                                                                                                                                                                                                                    |                                                                                                                                                        |               64 |            184 |
|  design_1_i/clk_wiz_0/inst/clk_cpu                                     |                                                                                                                                                                                                                    |                                                                                                                                                        |               97 |            210 |
|  design_1_i/clk_wiz_0/inst/clk_cpu                                     | design_1_i/ps_mb_0/microblaze_0/U0/MicroBlaze_Core_I/Performance.Core/Decode_I/Use_MuxCy[11].OF_Piperun_Stage/MUXCY_I/of_pause_reg                                                                                 | design_1_i/ps_mb_0/microblaze_0/U0/MicroBlaze_Core_I/sync_reset                                                                                        |               79 |            221 |
+------------------------------------------------------------------------+--------------------------------------------------------------------------------------------------------------------------------------------------------------------------------------------------------------------+--------------------------------------------------------------------------------------------------------------------------------------------------------+------------------+----------------+


