xpm_cdc.sv,systemverilog,xil_defaultlib,../../../../../../../../../Xilinx/Vivado/2019.1/data/ip/xpm/xpm_cdc/hdl/xpm_cdc.sv,incdir="../../../../dpp.srcs/sources_1/bd/design_1/ipshared/c923"incdir="../../../../dpp.srcs/sources_1/bd/design_1/ipshared/3280/hdl"incdir="../../../../dpp.srcs/sources_1/bd/design_1/ipshared/ec67/hdl"incdir="../../../../dpp.srcs/sources_1/bd/design_1/ipshared/c923"incdir="../../../../dpp.srcs/sources_1/bd/design_1/ipshared/3280/hdl"incdir="../../../../dpp.srcs/sources_1/bd/design_1/ipshared/df50/hdl"incdir="../../../../dpp.srcs/sources_1/bd/design_1/ipshared/1d04/hdl"incdir="../../../../dpp.srcs/sources_1/bd/design_1/ipshared/ec67/hdl"
xpm_memory.sv,systemverilog,xil_defaultlib,../../../../../../../../../Xilinx/Vivado/2019.1/data/ip/xpm/xpm_memory/hdl/xpm_memory.sv,incdir="../../../../dpp.srcs/sources_1/bd/design_1/ipshared/c923"incdir="../../../../dpp.srcs/sources_1/bd/design_1/ipshared/3280/hdl"incdir="../../../../dpp.srcs/sources_1/bd/design_1/ipshared/ec67/hdl"incdir="../../../../dpp.srcs/sources_1/bd/design_1/ipshared/c923"incdir="../../../../dpp.srcs/sources_1/bd/design_1/ipshared/3280/hdl"incdir="../../../../dpp.srcs/sources_1/bd/design_1/ipshared/df50/hdl"incdir="../../../../dpp.srcs/sources_1/bd/design_1/ipshared/1d04/hdl"incdir="../../../../dpp.srcs/sources_1/bd/design_1/ipshared/ec67/hdl"
xpm_VCOMP.vhd,vhdl,xpm,../../../../../../../../../Xilinx/Vivado/2019.1/data/ip/xpm/xpm_VCOMP.vhd,incdir="../../../../dpp.srcs/sources_1/bd/design_1/ipshared/c923"incdir="../../../../dpp.srcs/sources_1/bd/design_1/ipshared/3280/hdl"incdir="../../../../dpp.srcs/sources_1/bd/design_1/ipshared/ec67/hdl"incdir="../../../../dpp.srcs/sources_1/bd/design_1/ipshared/c923"incdir="../../../../dpp.srcs/sources_1/bd/design_1/ipshared/3280/hdl"incdir="../../../../dpp.srcs/sources_1/bd/design_1/ipshared/df50/hdl"incdir="../../../../dpp.srcs/sources_1/bd/design_1/ipshared/1d04/hdl"incdir="../../../../dpp.srcs/sources_1/bd/design_1/ipshared/ec67/hdl"
design_1_clk_wiz_0_0_clk_wiz.v,verilog,xil_defaultlib,../../../bd/design_1/ip/design_1_clk_wiz_0_0/design_1_clk_wiz_0_0_clk_wiz.v,incdir="../../../../dpp.srcs/sources_1/bd/design_1/ipshared/c923"incdir="../../../../dpp.srcs/sources_1/bd/design_1/ipshared/3280/hdl"incdir="../../../../dpp.srcs/sources_1/bd/design_1/ipshared/ec67/hdl"incdir="../../../../dpp.srcs/sources_1/bd/design_1/ipshared/c923"incdir="../../../../dpp.srcs/sources_1/bd/design_1/ipshared/3280/hdl"incdir="../../../../dpp.srcs/sources_1/bd/design_1/ipshared/df50/hdl"incdir="../../../../dpp.srcs/sources_1/bd/design_1/ipshared/1d04/hdl"incdir="../../../../dpp.srcs/sources_1/bd/design_1/ipshared/ec67/hdl"
design_1_clk_wiz_0_0.v,verilog,xil_defaultlib,../../../bd/design_1/ip/design_1_clk_wiz_0_0/design_1_clk_wiz_0_0.v,incdir="../../../../dpp.srcs/sources_1/bd/design_1/ipshared/c923"incdir="../../../../dpp.srcs/sources_1/bd/design_1/ipshared/3280/hdl"incdir="../../../../dpp.srcs/sources_1/bd/design_1/ipshared/ec67/hdl"incdir="../../../../dpp.srcs/sources_1/bd/design_1/ipshared/c923"incdir="../../../../dpp.srcs/sources_1/bd/design_1/ipshared/3280/hdl"incdir="../../../../dpp.srcs/sources_1/bd/design_1/ipshared/df50/hdl"incdir="../../../../dpp.srcs/sources_1/bd/design_1/ipshared/1d04/hdl"incdir="../../../../dpp.srcs/sources_1/bd/design_1/ipshared/ec67/hdl"
axi_lite_ipif_v3_0_vh_rfs.vhd,vhdl,axi_lite_ipif_v3_0_4,../../../../dpp.srcs/sources_1/bd/design_1/ipshared/66ea/hdl/axi_lite_ipif_v3_0_vh_rfs.vhd,incdir="../../../../dpp.srcs/sources_1/bd/design_1/ipshared/c923"incdir="../../../../dpp.srcs/sources_1/bd/design_1/ipshared/3280/hdl"incdir="../../../../dpp.srcs/sources_1/bd/design_1/ipshared/ec67/hdl"incdir="../../../../dpp.srcs/sources_1/bd/design_1/ipshared/c923"incdir="../../../../dpp.srcs/sources_1/bd/design_1/ipshared/3280/hdl"incdir="../../../../dpp.srcs/sources_1/bd/design_1/ipshared/df50/hdl"incdir="../../../../dpp.srcs/sources_1/bd/design_1/ipshared/1d04/hdl"incdir="../../../../dpp.srcs/sources_1/bd/design_1/ipshared/ec67/hdl"
lib_pkg_v1_0_rfs.vhd,vhdl,lib_pkg_v1_0_2,../../../../dpp.srcs/sources_1/bd/design_1/ipshared/0513/hdl/lib_pkg_v1_0_rfs.vhd,incdir="../../../../dpp.srcs/sources_1/bd/design_1/ipshared/c923"incdir="../../../../dpp.srcs/sources_1/bd/design_1/ipshared/3280/hdl"incdir="../../../../dpp.srcs/sources_1/bd/design_1/ipshared/ec67/hdl"incdir="../../../../dpp.srcs/sources_1/bd/design_1/ipshared/c923"incdir="../../../../dpp.srcs/sources_1/bd/design_1/ipshared/3280/hdl"incdir="../../../../dpp.srcs/sources_1/bd/design_1/ipshared/df50/hdl"incdir="../../../../dpp.srcs/sources_1/bd/design_1/ipshared/1d04/hdl"incdir="../../../../dpp.srcs/sources_1/bd/design_1/ipshared/ec67/hdl"
lib_srl_fifo_v1_0_rfs.vhd,vhdl,lib_srl_fifo_v1_0_2,../../../../dpp.srcs/sources_1/bd/design_1/ipshared/51ce/hdl/lib_srl_fifo_v1_0_rfs.vhd,incdir="../../../../dpp.srcs/sources_1/bd/design_1/ipshared/c923"incdir="../../../../dpp.srcs/sources_1/bd/design_1/ipshared/3280/hdl"incdir="../../../../dpp.srcs/sources_1/bd/design_1/ipshared/ec67/hdl"incdir="../../../../dpp.srcs/sources_1/bd/design_1/ipshared/c923"incdir="../../../../dpp.srcs/sources_1/bd/design_1/ipshared/3280/hdl"incdir="../../../../dpp.srcs/sources_1/bd/design_1/ipshared/df50/hdl"incdir="../../../../dpp.srcs/sources_1/bd/design_1/ipshared/1d04/hdl"incdir="../../../../dpp.srcs/sources_1/bd/design_1/ipshared/ec67/hdl"
lib_cdc_v1_0_rfs.vhd,vhdl,lib_cdc_v1_0_2,../../../../dpp.srcs/sources_1/bd/design_1/ipshared/ef1e/hdl/lib_cdc_v1_0_rfs.vhd,incdir="../../../../dpp.srcs/sources_1/bd/design_1/ipshared/c923"incdir="../../../../dpp.srcs/sources_1/bd/design_1/ipshared/3280/hdl"incdir="../../../../dpp.srcs/sources_1/bd/design_1/ipshared/ec67/hdl"incdir="../../../../dpp.srcs/sources_1/bd/design_1/ipshared/c923"incdir="../../../../dpp.srcs/sources_1/bd/design_1/ipshared/3280/hdl"incdir="../../../../dpp.srcs/sources_1/bd/design_1/ipshared/df50/hdl"incdir="../../../../dpp.srcs/sources_1/bd/design_1/ipshared/1d04/hdl"incdir="../../../../dpp.srcs/sources_1/bd/design_1/ipshared/ec67/hdl"
axi_uartlite_v2_0_vh_rfs.vhd,vhdl,axi_uartlite_v2_0_23,../../../../dpp.srcs/sources_1/bd/design_1/ipshared/0315/hdl/axi_uartlite_v2_0_vh_rfs.vhd,incdir="../../../../dpp.srcs/sources_1/bd/design_1/ipshared/c923"incdir="../../../../dpp.srcs/sources_1/bd/design_1/ipshared/3280/hdl"incdir="../../../../dpp.srcs/sources_1/bd/design_1/ipshared/ec67/hdl"incdir="../../../../dpp.srcs/sources_1/bd/design_1/ipshared/c923"incdir="../../../../dpp.srcs/sources_1/bd/design_1/ipshared/3280/hdl"incdir="../../../../dpp.srcs/sources_1/bd/design_1/ipshared/df50/hdl"incdir="../../../../dpp.srcs/sources_1/bd/design_1/ipshared/1d04/hdl"incdir="../../../../dpp.srcs/sources_1/bd/design_1/ipshared/ec67/hdl"
design_1_axi_uartlite_0_0.vhd,vhdl,xil_defaultlib,../../../bd/design_1/ip/design_1_axi_uartlite_0_0/sim/design_1_axi_uartlite_0_0.vhd,incdir="../../../../dpp.srcs/sources_1/bd/design_1/ipshared/c923"incdir="../../../../dpp.srcs/sources_1/bd/design_1/ipshared/3280/hdl"incdir="../../../../dpp.srcs/sources_1/bd/design_1/ipshared/ec67/hdl"incdir="../../../../dpp.srcs/sources_1/bd/design_1/ipshared/c923"incdir="../../../../dpp.srcs/sources_1/bd/design_1/ipshared/3280/hdl"incdir="../../../../dpp.srcs/sources_1/bd/design_1/ipshared/df50/hdl"incdir="../../../../dpp.srcs/sources_1/bd/design_1/ipshared/1d04/hdl"incdir="../../../../dpp.srcs/sources_1/bd/design_1/ipshared/ec67/hdl"
microblaze_v11_0_vh_rfs.vhd,vhdl,microblaze_v11_0_1,../../../../dpp.srcs/sources_1/bd/design_1/ipshared/f8c3/hdl/microblaze_v11_0_vh_rfs.vhd,incdir="../../../../dpp.srcs/sources_1/bd/design_1/ipshared/c923"incdir="../../../../dpp.srcs/sources_1/bd/design_1/ipshared/3280/hdl"incdir="../../../../dpp.srcs/sources_1/bd/design_1/ipshared/ec67/hdl"incdir="../../../../dpp.srcs/sources_1/bd/design_1/ipshared/c923"incdir="../../../../dpp.srcs/sources_1/bd/design_1/ipshared/3280/hdl"incdir="../../../../dpp.srcs/sources_1/bd/design_1/ipshared/df50/hdl"incdir="../../../../dpp.srcs/sources_1/bd/design_1/ipshared/1d04/hdl"incdir="../../../../dpp.srcs/sources_1/bd/design_1/ipshared/ec67/hdl"
design_1_microblaze_0_0.vhd,vhdl,xil_defaultlib,../../../bd/design_1/ip/design_1_microblaze_0_0/sim/design_1_microblaze_0_0.vhd,incdir="../../../../dpp.srcs/sources_1/bd/design_1/ipshared/c923"incdir="../../../../dpp.srcs/sources_1/bd/design_1/ipshared/3280/hdl"incdir="../../../../dpp.srcs/sources_1/bd/design_1/ipshared/ec67/hdl"incdir="../../../../dpp.srcs/sources_1/bd/design_1/ipshared/c923"incdir="../../../../dpp.srcs/sources_1/bd/design_1/ipshared/3280/hdl"incdir="../../../../dpp.srcs/sources_1/bd/design_1/ipshared/df50/hdl"incdir="../../../../dpp.srcs/sources_1/bd/design_1/ipshared/1d04/hdl"incdir="../../../../dpp.srcs/sources_1/bd/design_1/ipshared/ec67/hdl"
lmb_v10_v3_0_vh_rfs.vhd,vhdl,lmb_v10_v3_0_9,../../../../dpp.srcs/sources_1/bd/design_1/ipshared/78eb/hdl/lmb_v10_v3_0_vh_rfs.vhd,incdir="../../../../dpp.srcs/sources_1/bd/design_1/ipshared/c923"incdir="../../../../dpp.srcs/sources_1/bd/design_1/ipshared/3280/hdl"incdir="../../../../dpp.srcs/sources_1/bd/design_1/ipshared/ec67/hdl"incdir="../../../../dpp.srcs/sources_1/bd/design_1/ipshared/c923"incdir="../../../../dpp.srcs/sources_1/bd/design_1/ipshared/3280/hdl"incdir="../../../../dpp.srcs/sources_1/bd/design_1/ipshared/df50/hdl"incdir="../../../../dpp.srcs/sources_1/bd/design_1/ipshared/1d04/hdl"incdir="../../../../dpp.srcs/sources_1/bd/design_1/ipshared/ec67/hdl"
design_1_dlmb_v10_0.vhd,vhdl,xil_defaultlib,../../../bd/design_1/ip/design_1_dlmb_v10_0/sim/design_1_dlmb_v10_0.vhd,incdir="../../../../dpp.srcs/sources_1/bd/design_1/ipshared/c923"incdir="../../../../dpp.srcs/sources_1/bd/design_1/ipshared/3280/hdl"incdir="../../../../dpp.srcs/sources_1/bd/design_1/ipshared/ec67/hdl"incdir="../../../../dpp.srcs/sources_1/bd/design_1/ipshared/c923"incdir="../../../../dpp.srcs/sources_1/bd/design_1/ipshared/3280/hdl"incdir="../../../../dpp.srcs/sources_1/bd/design_1/ipshared/df50/hdl"incdir="../../../../dpp.srcs/sources_1/bd/design_1/ipshared/1d04/hdl"incdir="../../../../dpp.srcs/sources_1/bd/design_1/ipshared/ec67/hdl"
design_1_ilmb_v10_0.vhd,vhdl,xil_defaultlib,../../../bd/design_1/ip/design_1_ilmb_v10_0/sim/design_1_ilmb_v10_0.vhd,incdir="../../../../dpp.srcs/sources_1/bd/design_1/ipshared/c923"incdir="../../../../dpp.srcs/sources_1/bd/design_1/ipshared/3280/hdl"incdir="../../../../dpp.srcs/sources_1/bd/design_1/ipshared/ec67/hdl"incdir="../../../../dpp.srcs/sources_1/bd/design_1/ipshared/c923"incdir="../../../../dpp.srcs/sources_1/bd/design_1/ipshared/3280/hdl"incdir="../../../../dpp.srcs/sources_1/bd/design_1/ipshared/df50/hdl"incdir="../../../../dpp.srcs/sources_1/bd/design_1/ipshared/1d04/hdl"incdir="../../../../dpp.srcs/sources_1/bd/design_1/ipshared/ec67/hdl"
lmb_bram_if_cntlr_v4_0_vh_rfs.vhd,vhdl,lmb_bram_if_cntlr_v4_0_16,../../../../dpp.srcs/sources_1/bd/design_1/ipshared/6335/hdl/lmb_bram_if_cntlr_v4_0_vh_rfs.vhd,incdir="../../../../dpp.srcs/sources_1/bd/design_1/ipshared/c923"incdir="../../../../dpp.srcs/sources_1/bd/design_1/ipshared/3280/hdl"incdir="../../../../dpp.srcs/sources_1/bd/design_1/ipshared/ec67/hdl"incdir="../../../../dpp.srcs/sources_1/bd/design_1/ipshared/c923"incdir="../../../../dpp.srcs/sources_1/bd/design_1/ipshared/3280/hdl"incdir="../../../../dpp.srcs/sources_1/bd/design_1/ipshared/df50/hdl"incdir="../../../../dpp.srcs/sources_1/bd/design_1/ipshared/1d04/hdl"incdir="../../../../dpp.srcs/sources_1/bd/design_1/ipshared/ec67/hdl"
design_1_dlmb_bram_if_cntlr_0.vhd,vhdl,xil_defaultlib,../../../bd/design_1/ip/design_1_dlmb_bram_if_cntlr_0/sim/design_1_dlmb_bram_if_cntlr_0.vhd,incdir="../../../../dpp.srcs/sources_1/bd/design_1/ipshared/c923"incdir="../../../../dpp.srcs/sources_1/bd/design_1/ipshared/3280/hdl"incdir="../../../../dpp.srcs/sources_1/bd/design_1/ipshared/ec67/hdl"incdir="../../../../dpp.srcs/sources_1/bd/design_1/ipshared/c923"incdir="../../../../dpp.srcs/sources_1/bd/design_1/ipshared/3280/hdl"incdir="../../../../dpp.srcs/sources_1/bd/design_1/ipshared/df50/hdl"incdir="../../../../dpp.srcs/sources_1/bd/design_1/ipshared/1d04/hdl"incdir="../../../../dpp.srcs/sources_1/bd/design_1/ipshared/ec67/hdl"
design_1_ilmb_bram_if_cntlr_0.vhd,vhdl,xil_defaultlib,../../../bd/design_1/ip/design_1_ilmb_bram_if_cntlr_0/sim/design_1_ilmb_bram_if_cntlr_0.vhd,incdir="../../../../dpp.srcs/sources_1/bd/design_1/ipshared/c923"incdir="../../../../dpp.srcs/sources_1/bd/design_1/ipshared/3280/hdl"incdir="../../../../dpp.srcs/sources_1/bd/design_1/ipshared/ec67/hdl"incdir="../../../../dpp.srcs/sources_1/bd/design_1/ipshared/c923"incdir="../../../../dpp.srcs/sources_1/bd/design_1/ipshared/3280/hdl"incdir="../../../../dpp.srcs/sources_1/bd/design_1/ipshared/df50/hdl"incdir="../../../../dpp.srcs/sources_1/bd/design_1/ipshared/1d04/hdl"incdir="../../../../dpp.srcs/sources_1/bd/design_1/ipshared/ec67/hdl"
blk_mem_gen_v8_4.v,verilog,blk_mem_gen_v8_4_3,../../../../dpp.srcs/sources_1/bd/design_1/ipshared/c001/simulation/blk_mem_gen_v8_4.v,incdir="../../../../dpp.srcs/sources_1/bd/design_1/ipshared/c923"incdir="../../../../dpp.srcs/sources_1/bd/design_1/ipshared/3280/hdl"incdir="../../../../dpp.srcs/sources_1/bd/design_1/ipshared/ec67/hdl"incdir="../../../../dpp.srcs/sources_1/bd/design_1/ipshared/c923"incdir="../../../../dpp.srcs/sources_1/bd/design_1/ipshared/3280/hdl"incdir="../../../../dpp.srcs/sources_1/bd/design_1/ipshared/df50/hdl"incdir="../../../../dpp.srcs/sources_1/bd/design_1/ipshared/1d04/hdl"incdir="../../../../dpp.srcs/sources_1/bd/design_1/ipshared/ec67/hdl"
design_1_lmb_bram_0.v,verilog,xil_defaultlib,../../../bd/design_1/ip/design_1_lmb_bram_0/sim/design_1_lmb_bram_0.v,incdir="../../../../dpp.srcs/sources_1/bd/design_1/ipshared/c923"incdir="../../../../dpp.srcs/sources_1/bd/design_1/ipshared/3280/hdl"incdir="../../../../dpp.srcs/sources_1/bd/design_1/ipshared/ec67/hdl"incdir="../../../../dpp.srcs/sources_1/bd/design_1/ipshared/c923"incdir="../../../../dpp.srcs/sources_1/bd/design_1/ipshared/3280/hdl"incdir="../../../../dpp.srcs/sources_1/bd/design_1/ipshared/df50/hdl"incdir="../../../../dpp.srcs/sources_1/bd/design_1/ipshared/1d04/hdl"incdir="../../../../dpp.srcs/sources_1/bd/design_1/ipshared/ec67/hdl"
mdm_v3_2_vh_rfs.vhd,vhdl,mdm_v3_2_16,../../../../dpp.srcs/sources_1/bd/design_1/ipshared/550e/hdl/mdm_v3_2_vh_rfs.vhd,incdir="../../../../dpp.srcs/sources_1/bd/design_1/ipshared/c923"incdir="../../../../dpp.srcs/sources_1/bd/design_1/ipshared/3280/hdl"incdir="../../../../dpp.srcs/sources_1/bd/design_1/ipshared/ec67/hdl"incdir="../../../../dpp.srcs/sources_1/bd/design_1/ipshared/c923"incdir="../../../../dpp.srcs/sources_1/bd/design_1/ipshared/3280/hdl"incdir="../../../../dpp.srcs/sources_1/bd/design_1/ipshared/df50/hdl"incdir="../../../../dpp.srcs/sources_1/bd/design_1/ipshared/1d04/hdl"incdir="../../../../dpp.srcs/sources_1/bd/design_1/ipshared/ec67/hdl"
design_1_mdm_1_0.vhd,vhdl,xil_defaultlib,../../../bd/design_1/ip/design_1_mdm_1_0/sim/design_1_mdm_1_0.vhd,incdir="../../../../dpp.srcs/sources_1/bd/design_1/ipshared/c923"incdir="../../../../dpp.srcs/sources_1/bd/design_1/ipshared/3280/hdl"incdir="../../../../dpp.srcs/sources_1/bd/design_1/ipshared/ec67/hdl"incdir="../../../../dpp.srcs/sources_1/bd/design_1/ipshared/c923"incdir="../../../../dpp.srcs/sources_1/bd/design_1/ipshared/3280/hdl"incdir="../../../../dpp.srcs/sources_1/bd/design_1/ipshared/df50/hdl"incdir="../../../../dpp.srcs/sources_1/bd/design_1/ipshared/1d04/hdl"incdir="../../../../dpp.srcs/sources_1/bd/design_1/ipshared/ec67/hdl"
proc_sys_reset_v5_0_vh_rfs.vhd,vhdl,proc_sys_reset_v5_0_13,../../../../dpp.srcs/sources_1/bd/design_1/ipshared/8842/hdl/proc_sys_reset_v5_0_vh_rfs.vhd,incdir="../../../../dpp.srcs/sources_1/bd/design_1/ipshared/c923"incdir="../../../../dpp.srcs/sources_1/bd/design_1/ipshared/3280/hdl"incdir="../../../../dpp.srcs/sources_1/bd/design_1/ipshared/ec67/hdl"incdir="../../../../dpp.srcs/sources_1/bd/design_1/ipshared/c923"incdir="../../../../dpp.srcs/sources_1/bd/design_1/ipshared/3280/hdl"incdir="../../../../dpp.srcs/sources_1/bd/design_1/ipshared/df50/hdl"incdir="../../../../dpp.srcs/sources_1/bd/design_1/ipshared/1d04/hdl"incdir="../../../../dpp.srcs/sources_1/bd/design_1/ipshared/ec67/hdl"
design_1_rst_clk_wiz_0_120M_0.vhd,vhdl,xil_defaultlib,../../../bd/design_1/ip/design_1_rst_clk_wiz_0_120M_0/sim/design_1_rst_clk_wiz_0_120M_0.vhd,incdir="../../../../dpp.srcs/sources_1/bd/design_1/ipshared/c923"incdir="../../../../dpp.srcs/sources_1/bd/design_1/ipshared/3280/hdl"incdir="../../../../dpp.srcs/sources_1/bd/design_1/ipshared/ec67/hdl"incdir="../../../../dpp.srcs/sources_1/bd/design_1/ipshared/c923"incdir="../../../../dpp.srcs/sources_1/bd/design_1/ipshared/3280/hdl"incdir="../../../../dpp.srcs/sources_1/bd/design_1/ipshared/df50/hdl"incdir="../../../../dpp.srcs/sources_1/bd/design_1/ipshared/1d04/hdl"incdir="../../../../dpp.srcs/sources_1/bd/design_1/ipshared/ec67/hdl"
axi_intc_v4_1_vh_rfs.vhd,vhdl,axi_intc_v4_1_13,../../../../dpp.srcs/sources_1/bd/design_1/ipshared/c0fe/hdl/axi_intc_v4_1_vh_rfs.vhd,incdir="../../../../dpp.srcs/sources_1/bd/design_1/ipshared/c923"incdir="../../../../dpp.srcs/sources_1/bd/design_1/ipshared/3280/hdl"incdir="../../../../dpp.srcs/sources_1/bd/design_1/ipshared/ec67/hdl"incdir="../../../../dpp.srcs/sources_1/bd/design_1/ipshared/c923"incdir="../../../../dpp.srcs/sources_1/bd/design_1/ipshared/3280/hdl"incdir="../../../../dpp.srcs/sources_1/bd/design_1/ipshared/df50/hdl"incdir="../../../../dpp.srcs/sources_1/bd/design_1/ipshared/1d04/hdl"incdir="../../../../dpp.srcs/sources_1/bd/design_1/ipshared/ec67/hdl"
design_1_axi_intc_0_0.vhd,vhdl,xil_defaultlib,../../../bd/design_1/ip/design_1_axi_intc_0_0/sim/design_1_axi_intc_0_0.vhd,incdir="../../../../dpp.srcs/sources_1/bd/design_1/ipshared/c923"incdir="../../../../dpp.srcs/sources_1/bd/design_1/ipshared/3280/hdl"incdir="../../../../dpp.srcs/sources_1/bd/design_1/ipshared/ec67/hdl"incdir="../../../../dpp.srcs/sources_1/bd/design_1/ipshared/c923"incdir="../../../../dpp.srcs/sources_1/bd/design_1/ipshared/3280/hdl"incdir="../../../../dpp.srcs/sources_1/bd/design_1/ipshared/df50/hdl"incdir="../../../../dpp.srcs/sources_1/bd/design_1/ipshared/1d04/hdl"incdir="../../../../dpp.srcs/sources_1/bd/design_1/ipshared/ec67/hdl"
ip_mux16_2_v1_0_S00_AXI.vhd,vhdl,xil_defaultlib,../../../bd/design_1/ipshared/2922/hdl/ip_mux16_2_v1_0_S00_AXI.vhd,incdir="../../../../dpp.srcs/sources_1/bd/design_1/ipshared/c923"incdir="../../../../dpp.srcs/sources_1/bd/design_1/ipshared/3280/hdl"incdir="../../../../dpp.srcs/sources_1/bd/design_1/ipshared/ec67/hdl"incdir="../../../../dpp.srcs/sources_1/bd/design_1/ipshared/c923"incdir="../../../../dpp.srcs/sources_1/bd/design_1/ipshared/3280/hdl"incdir="../../../../dpp.srcs/sources_1/bd/design_1/ipshared/df50/hdl"incdir="../../../../dpp.srcs/sources_1/bd/design_1/ipshared/1d04/hdl"incdir="../../../../dpp.srcs/sources_1/bd/design_1/ipshared/ec67/hdl"
mux16_2.vhd,vhdl,xil_defaultlib,../../../bd/design_1/ipshared/2922/src/mux16_2.vhd,incdir="../../../../dpp.srcs/sources_1/bd/design_1/ipshared/c923"incdir="../../../../dpp.srcs/sources_1/bd/design_1/ipshared/3280/hdl"incdir="../../../../dpp.srcs/sources_1/bd/design_1/ipshared/ec67/hdl"incdir="../../../../dpp.srcs/sources_1/bd/design_1/ipshared/c923"incdir="../../../../dpp.srcs/sources_1/bd/design_1/ipshared/3280/hdl"incdir="../../../../dpp.srcs/sources_1/bd/design_1/ipshared/df50/hdl"incdir="../../../../dpp.srcs/sources_1/bd/design_1/ipshared/1d04/hdl"incdir="../../../../dpp.srcs/sources_1/bd/design_1/ipshared/ec67/hdl"
ip_mux16_2_v1_0.vhd,vhdl,xil_defaultlib,../../../bd/design_1/ipshared/2922/hdl/ip_mux16_2_v1_0.vhd,incdir="../../../../dpp.srcs/sources_1/bd/design_1/ipshared/c923"incdir="../../../../dpp.srcs/sources_1/bd/design_1/ipshared/3280/hdl"incdir="../../../../dpp.srcs/sources_1/bd/design_1/ipshared/ec67/hdl"incdir="../../../../dpp.srcs/sources_1/bd/design_1/ipshared/c923"incdir="../../../../dpp.srcs/sources_1/bd/design_1/ipshared/3280/hdl"incdir="../../../../dpp.srcs/sources_1/bd/design_1/ipshared/df50/hdl"incdir="../../../../dpp.srcs/sources_1/bd/design_1/ipshared/1d04/hdl"incdir="../../../../dpp.srcs/sources_1/bd/design_1/ipshared/ec67/hdl"
design_1_ip_mux16_2_if_0_0.vhd,vhdl,xil_defaultlib,../../../bd/design_1/ip/design_1_ip_mux16_2_if_0_0/sim/design_1_ip_mux16_2_if_0_0.vhd,incdir="../../../../dpp.srcs/sources_1/bd/design_1/ipshared/c923"incdir="../../../../dpp.srcs/sources_1/bd/design_1/ipshared/3280/hdl"incdir="../../../../dpp.srcs/sources_1/bd/design_1/ipshared/ec67/hdl"incdir="../../../../dpp.srcs/sources_1/bd/design_1/ipshared/c923"incdir="../../../../dpp.srcs/sources_1/bd/design_1/ipshared/3280/hdl"incdir="../../../../dpp.srcs/sources_1/bd/design_1/ipshared/df50/hdl"incdir="../../../../dpp.srcs/sources_1/bd/design_1/ipshared/1d04/hdl"incdir="../../../../dpp.srcs/sources_1/bd/design_1/ipshared/ec67/hdl"
ip_scope_blk_mem_gen_i0.v,verilog,xil_defaultlib,../../../bd/design_1/ip/design_1_ip_scope_0_0/ip_scope_blk_mem_gen_i0/sim/ip_scope_blk_mem_gen_i0.v,incdir="../../../../dpp.srcs/sources_1/bd/design_1/ipshared/c923"incdir="../../../../dpp.srcs/sources_1/bd/design_1/ipshared/3280/hdl"incdir="../../../../dpp.srcs/sources_1/bd/design_1/ipshared/ec67/hdl"incdir="../../../../dpp.srcs/sources_1/bd/design_1/ipshared/c923"incdir="../../../../dpp.srcs/sources_1/bd/design_1/ipshared/3280/hdl"incdir="../../../../dpp.srcs/sources_1/bd/design_1/ipshared/df50/hdl"incdir="../../../../dpp.srcs/sources_1/bd/design_1/ipshared/1d04/hdl"incdir="../../../../dpp.srcs/sources_1/bd/design_1/ipshared/ec67/hdl"
ip_scope_blk_mem_gen_i1.v,verilog,xil_defaultlib,../../../bd/design_1/ip/design_1_ip_scope_0_0/ip_scope_blk_mem_gen_i1/sim/ip_scope_blk_mem_gen_i1.v,incdir="../../../../dpp.srcs/sources_1/bd/design_1/ipshared/c923"incdir="../../../../dpp.srcs/sources_1/bd/design_1/ipshared/3280/hdl"incdir="../../../../dpp.srcs/sources_1/bd/design_1/ipshared/ec67/hdl"incdir="../../../../dpp.srcs/sources_1/bd/design_1/ipshared/c923"incdir="../../../../dpp.srcs/sources_1/bd/design_1/ipshared/3280/hdl"incdir="../../../../dpp.srcs/sources_1/bd/design_1/ipshared/df50/hdl"incdir="../../../../dpp.srcs/sources_1/bd/design_1/ipshared/1d04/hdl"incdir="../../../../dpp.srcs/sources_1/bd/design_1/ipshared/ec67/hdl"
xbip_utils_v3_0_vh_rfs.vhd,vhdl,xbip_utils_v3_0_10,../../../../dpp.srcs/sources_1/bd/design_1/ip/design_1_ip_scope_0_0/ip_scope_c_counter_binary_v12_0_i0/hdl/xbip_utils_v3_0_vh_rfs.vhd,incdir="../../../../dpp.srcs/sources_1/bd/design_1/ipshared/c923"incdir="../../../../dpp.srcs/sources_1/bd/design_1/ipshared/3280/hdl"incdir="../../../../dpp.srcs/sources_1/bd/design_1/ipshared/ec67/hdl"incdir="../../../../dpp.srcs/sources_1/bd/design_1/ipshared/c923"incdir="../../../../dpp.srcs/sources_1/bd/design_1/ipshared/3280/hdl"incdir="../../../../dpp.srcs/sources_1/bd/design_1/ipshared/df50/hdl"incdir="../../../../dpp.srcs/sources_1/bd/design_1/ipshared/1d04/hdl"incdir="../../../../dpp.srcs/sources_1/bd/design_1/ipshared/ec67/hdl"
c_reg_fd_v12_0_vh_rfs.vhd,vhdl,c_reg_fd_v12_0_6,../../../../dpp.srcs/sources_1/bd/design_1/ip/design_1_ip_scope_0_0/ip_scope_c_counter_binary_v12_0_i0/hdl/c_reg_fd_v12_0_vh_rfs.vhd,incdir="../../../../dpp.srcs/sources_1/bd/design_1/ipshared/c923"incdir="../../../../dpp.srcs/sources_1/bd/design_1/ipshared/3280/hdl"incdir="../../../../dpp.srcs/sources_1/bd/design_1/ipshared/ec67/hdl"incdir="../../../../dpp.srcs/sources_1/bd/design_1/ipshared/c923"incdir="../../../../dpp.srcs/sources_1/bd/design_1/ipshared/3280/hdl"incdir="../../../../dpp.srcs/sources_1/bd/design_1/ipshared/df50/hdl"incdir="../../../../dpp.srcs/sources_1/bd/design_1/ipshared/1d04/hdl"incdir="../../../../dpp.srcs/sources_1/bd/design_1/ipshared/ec67/hdl"
xbip_dsp48_wrapper_v3_0_vh_rfs.vhd,vhdl,xbip_dsp48_wrapper_v3_0_4,../../../../dpp.srcs/sources_1/bd/design_1/ip/design_1_ip_scope_0_0/ip_scope_c_counter_binary_v12_0_i0/hdl/xbip_dsp48_wrapper_v3_0_vh_rfs.vhd,incdir="../../../../dpp.srcs/sources_1/bd/design_1/ipshared/c923"incdir="../../../../dpp.srcs/sources_1/bd/design_1/ipshared/3280/hdl"incdir="../../../../dpp.srcs/sources_1/bd/design_1/ipshared/ec67/hdl"incdir="../../../../dpp.srcs/sources_1/bd/design_1/ipshared/c923"incdir="../../../../dpp.srcs/sources_1/bd/design_1/ipshared/3280/hdl"incdir="../../../../dpp.srcs/sources_1/bd/design_1/ipshared/df50/hdl"incdir="../../../../dpp.srcs/sources_1/bd/design_1/ipshared/1d04/hdl"incdir="../../../../dpp.srcs/sources_1/bd/design_1/ipshared/ec67/hdl"
xbip_pipe_v3_0_vh_rfs.vhd,vhdl,xbip_pipe_v3_0_6,../../../../dpp.srcs/sources_1/bd/design_1/ip/design_1_ip_scope_0_0/ip_scope_c_counter_binary_v12_0_i0/hdl/xbip_pipe_v3_0_vh_rfs.vhd,incdir="../../../../dpp.srcs/sources_1/bd/design_1/ipshared/c923"incdir="../../../../dpp.srcs/sources_1/bd/design_1/ipshared/3280/hdl"incdir="../../../../dpp.srcs/sources_1/bd/design_1/ipshared/ec67/hdl"incdir="../../../../dpp.srcs/sources_1/bd/design_1/ipshared/c923"incdir="../../../../dpp.srcs/sources_1/bd/design_1/ipshared/3280/hdl"incdir="../../../../dpp.srcs/sources_1/bd/design_1/ipshared/df50/hdl"incdir="../../../../dpp.srcs/sources_1/bd/design_1/ipshared/1d04/hdl"incdir="../../../../dpp.srcs/sources_1/bd/design_1/ipshared/ec67/hdl"
xbip_dsp48_addsub_v3_0_vh_rfs.vhd,vhdl,xbip_dsp48_addsub_v3_0_6,../../../../dpp.srcs/sources_1/bd/design_1/ip/design_1_ip_scope_0_0/ip_scope_c_counter_binary_v12_0_i0/hdl/xbip_dsp48_addsub_v3_0_vh_rfs.vhd,incdir="../../../../dpp.srcs/sources_1/bd/design_1/ipshared/c923"incdir="../../../../dpp.srcs/sources_1/bd/design_1/ipshared/3280/hdl"incdir="../../../../dpp.srcs/sources_1/bd/design_1/ipshared/ec67/hdl"incdir="../../../../dpp.srcs/sources_1/bd/design_1/ipshared/c923"incdir="../../../../dpp.srcs/sources_1/bd/design_1/ipshared/3280/hdl"incdir="../../../../dpp.srcs/sources_1/bd/design_1/ipshared/df50/hdl"incdir="../../../../dpp.srcs/sources_1/bd/design_1/ipshared/1d04/hdl"incdir="../../../../dpp.srcs/sources_1/bd/design_1/ipshared/ec67/hdl"
xbip_addsub_v3_0_vh_rfs.vhd,vhdl,xbip_addsub_v3_0_6,../../../../dpp.srcs/sources_1/bd/design_1/ip/design_1_ip_scope_0_0/ip_scope_c_counter_binary_v12_0_i0/hdl/xbip_addsub_v3_0_vh_rfs.vhd,incdir="../../../../dpp.srcs/sources_1/bd/design_1/ipshared/c923"incdir="../../../../dpp.srcs/sources_1/bd/design_1/ipshared/3280/hdl"incdir="../../../../dpp.srcs/sources_1/bd/design_1/ipshared/ec67/hdl"incdir="../../../../dpp.srcs/sources_1/bd/design_1/ipshared/c923"incdir="../../../../dpp.srcs/sources_1/bd/design_1/ipshared/3280/hdl"incdir="../../../../dpp.srcs/sources_1/bd/design_1/ipshared/df50/hdl"incdir="../../../../dpp.srcs/sources_1/bd/design_1/ipshared/1d04/hdl"incdir="../../../../dpp.srcs/sources_1/bd/design_1/ipshared/ec67/hdl"
c_addsub_v12_0_vh_rfs.vhd,vhdl,c_addsub_v12_0_13,../../../../dpp.srcs/sources_1/bd/design_1/ip/design_1_ip_scope_0_0/ip_scope_c_counter_binary_v12_0_i0/hdl/c_addsub_v12_0_vh_rfs.vhd,incdir="../../../../dpp.srcs/sources_1/bd/design_1/ipshared/c923"incdir="../../../../dpp.srcs/sources_1/bd/design_1/ipshared/3280/hdl"incdir="../../../../dpp.srcs/sources_1/bd/design_1/ipshared/ec67/hdl"incdir="../../../../dpp.srcs/sources_1/bd/design_1/ipshared/c923"incdir="../../../../dpp.srcs/sources_1/bd/design_1/ipshared/3280/hdl"incdir="../../../../dpp.srcs/sources_1/bd/design_1/ipshared/df50/hdl"incdir="../../../../dpp.srcs/sources_1/bd/design_1/ipshared/1d04/hdl"incdir="../../../../dpp.srcs/sources_1/bd/design_1/ipshared/ec67/hdl"
c_gate_bit_v12_0_vh_rfs.vhd,vhdl,c_gate_bit_v12_0_6,../../../../dpp.srcs/sources_1/bd/design_1/ip/design_1_ip_scope_0_0/ip_scope_c_counter_binary_v12_0_i0/hdl/c_gate_bit_v12_0_vh_rfs.vhd,incdir="../../../../dpp.srcs/sources_1/bd/design_1/ipshared/c923"incdir="../../../../dpp.srcs/sources_1/bd/design_1/ipshared/3280/hdl"incdir="../../../../dpp.srcs/sources_1/bd/design_1/ipshared/ec67/hdl"incdir="../../../../dpp.srcs/sources_1/bd/design_1/ipshared/c923"incdir="../../../../dpp.srcs/sources_1/bd/design_1/ipshared/3280/hdl"incdir="../../../../dpp.srcs/sources_1/bd/design_1/ipshared/df50/hdl"incdir="../../../../dpp.srcs/sources_1/bd/design_1/ipshared/1d04/hdl"incdir="../../../../dpp.srcs/sources_1/bd/design_1/ipshared/ec67/hdl"
xbip_counter_v3_0_vh_rfs.vhd,vhdl,xbip_counter_v3_0_6,../../../../dpp.srcs/sources_1/bd/design_1/ip/design_1_ip_scope_0_0/ip_scope_c_counter_binary_v12_0_i0/hdl/xbip_counter_v3_0_vh_rfs.vhd,incdir="../../../../dpp.srcs/sources_1/bd/design_1/ipshared/c923"incdir="../../../../dpp.srcs/sources_1/bd/design_1/ipshared/3280/hdl"incdir="../../../../dpp.srcs/sources_1/bd/design_1/ipshared/ec67/hdl"incdir="../../../../dpp.srcs/sources_1/bd/design_1/ipshared/c923"incdir="../../../../dpp.srcs/sources_1/bd/design_1/ipshared/3280/hdl"incdir="../../../../dpp.srcs/sources_1/bd/design_1/ipshared/df50/hdl"incdir="../../../../dpp.srcs/sources_1/bd/design_1/ipshared/1d04/hdl"incdir="../../../../dpp.srcs/sources_1/bd/design_1/ipshared/ec67/hdl"
c_counter_binary_v12_0_vh_rfs.vhd,vhdl,c_counter_binary_v12_0_13,../../../../dpp.srcs/sources_1/bd/design_1/ip/design_1_ip_scope_0_0/ip_scope_c_counter_binary_v12_0_i0/hdl/c_counter_binary_v12_0_vh_rfs.vhd,incdir="../../../../dpp.srcs/sources_1/bd/design_1/ipshared/c923"incdir="../../../../dpp.srcs/sources_1/bd/design_1/ipshared/3280/hdl"incdir="../../../../dpp.srcs/sources_1/bd/design_1/ipshared/ec67/hdl"incdir="../../../../dpp.srcs/sources_1/bd/design_1/ipshared/c923"incdir="../../../../dpp.srcs/sources_1/bd/design_1/ipshared/3280/hdl"incdir="../../../../dpp.srcs/sources_1/bd/design_1/ipshared/df50/hdl"incdir="../../../../dpp.srcs/sources_1/bd/design_1/ipshared/1d04/hdl"incdir="../../../../dpp.srcs/sources_1/bd/design_1/ipshared/ec67/hdl"
ip_scope_c_counter_binary_v12_0_i0.vhd,vhdl,xil_defaultlib,../../../bd/design_1/ip/design_1_ip_scope_0_0/ip_scope_c_counter_binary_v12_0_i0/sim/ip_scope_c_counter_binary_v12_0_i0.vhd,incdir="../../../../dpp.srcs/sources_1/bd/design_1/ipshared/c923"incdir="../../../../dpp.srcs/sources_1/bd/design_1/ipshared/3280/hdl"incdir="../../../../dpp.srcs/sources_1/bd/design_1/ipshared/ec67/hdl"incdir="../../../../dpp.srcs/sources_1/bd/design_1/ipshared/c923"incdir="../../../../dpp.srcs/sources_1/bd/design_1/ipshared/3280/hdl"incdir="../../../../dpp.srcs/sources_1/bd/design_1/ipshared/df50/hdl"incdir="../../../../dpp.srcs/sources_1/bd/design_1/ipshared/1d04/hdl"incdir="../../../../dpp.srcs/sources_1/bd/design_1/ipshared/ec67/hdl"
conv_pkg.vhd,vhdl,xil_defaultlib,../../../../dpp.srcs/sources_1/bd/design_1/ipshared/3280/hdl/conv_pkg.vhd,incdir="../../../../dpp.srcs/sources_1/bd/design_1/ipshared/c923"incdir="../../../../dpp.srcs/sources_1/bd/design_1/ipshared/3280/hdl"incdir="../../../../dpp.srcs/sources_1/bd/design_1/ipshared/ec67/hdl"incdir="../../../../dpp.srcs/sources_1/bd/design_1/ipshared/c923"incdir="../../../../dpp.srcs/sources_1/bd/design_1/ipshared/3280/hdl"incdir="../../../../dpp.srcs/sources_1/bd/design_1/ipshared/df50/hdl"incdir="../../../../dpp.srcs/sources_1/bd/design_1/ipshared/1d04/hdl"incdir="../../../../dpp.srcs/sources_1/bd/design_1/ipshared/ec67/hdl"
synth_reg.vhd,vhdl,xil_defaultlib,../../../../dpp.srcs/sources_1/bd/design_1/ipshared/3280/hdl/synth_reg.vhd,incdir="../../../../dpp.srcs/sources_1/bd/design_1/ipshared/c923"incdir="../../../../dpp.srcs/sources_1/bd/design_1/ipshared/3280/hdl"incdir="../../../../dpp.srcs/sources_1/bd/design_1/ipshared/ec67/hdl"incdir="../../../../dpp.srcs/sources_1/bd/design_1/ipshared/c923"incdir="../../../../dpp.srcs/sources_1/bd/design_1/ipshared/3280/hdl"incdir="../../../../dpp.srcs/sources_1/bd/design_1/ipshared/df50/hdl"incdir="../../../../dpp.srcs/sources_1/bd/design_1/ipshared/1d04/hdl"incdir="../../../../dpp.srcs/sources_1/bd/design_1/ipshared/ec67/hdl"
synth_reg_w_init.vhd,vhdl,xil_defaultlib,../../../../dpp.srcs/sources_1/bd/design_1/ipshared/3280/hdl/synth_reg_w_init.vhd,incdir="../../../../dpp.srcs/sources_1/bd/design_1/ipshared/c923"incdir="../../../../dpp.srcs/sources_1/bd/design_1/ipshared/3280/hdl"incdir="../../../../dpp.srcs/sources_1/bd/design_1/ipshared/ec67/hdl"incdir="../../../../dpp.srcs/sources_1/bd/design_1/ipshared/c923"incdir="../../../../dpp.srcs/sources_1/bd/design_1/ipshared/3280/hdl"incdir="../../../../dpp.srcs/sources_1/bd/design_1/ipshared/df50/hdl"incdir="../../../../dpp.srcs/sources_1/bd/design_1/ipshared/1d04/hdl"incdir="../../../../dpp.srcs/sources_1/bd/design_1/ipshared/ec67/hdl"
srl17e.vhd,vhdl,xil_defaultlib,../../../../dpp.srcs/sources_1/bd/design_1/ipshared/3280/hdl/srl17e.vhd,incdir="../../../../dpp.srcs/sources_1/bd/design_1/ipshared/c923"incdir="../../../../dpp.srcs/sources_1/bd/design_1/ipshared/3280/hdl"incdir="../../../../dpp.srcs/sources_1/bd/design_1/ipshared/ec67/hdl"incdir="../../../../dpp.srcs/sources_1/bd/design_1/ipshared/c923"incdir="../../../../dpp.srcs/sources_1/bd/design_1/ipshared/3280/hdl"incdir="../../../../dpp.srcs/sources_1/bd/design_1/ipshared/df50/hdl"incdir="../../../../dpp.srcs/sources_1/bd/design_1/ipshared/1d04/hdl"incdir="../../../../dpp.srcs/sources_1/bd/design_1/ipshared/ec67/hdl"
srl33e.vhd,vhdl,xil_defaultlib,../../../../dpp.srcs/sources_1/bd/design_1/ipshared/3280/hdl/srl33e.vhd,incdir="../../../../dpp.srcs/sources_1/bd/design_1/ipshared/c923"incdir="../../../../dpp.srcs/sources_1/bd/design_1/ipshared/3280/hdl"incdir="../../../../dpp.srcs/sources_1/bd/design_1/ipshared/ec67/hdl"incdir="../../../../dpp.srcs/sources_1/bd/design_1/ipshared/c923"incdir="../../../../dpp.srcs/sources_1/bd/design_1/ipshared/3280/hdl"incdir="../../../../dpp.srcs/sources_1/bd/design_1/ipshared/df50/hdl"incdir="../../../../dpp.srcs/sources_1/bd/design_1/ipshared/1d04/hdl"incdir="../../../../dpp.srcs/sources_1/bd/design_1/ipshared/ec67/hdl"
synth_reg_reg.vhd,vhdl,xil_defaultlib,../../../../dpp.srcs/sources_1/bd/design_1/ipshared/3280/hdl/synth_reg_reg.vhd,incdir="../../../../dpp.srcs/sources_1/bd/design_1/ipshared/c923"incdir="../../../../dpp.srcs/sources_1/bd/design_1/ipshared/3280/hdl"incdir="../../../../dpp.srcs/sources_1/bd/design_1/ipshared/ec67/hdl"incdir="../../../../dpp.srcs/sources_1/bd/design_1/ipshared/c923"incdir="../../../../dpp.srcs/sources_1/bd/design_1/ipshared/3280/hdl"incdir="../../../../dpp.srcs/sources_1/bd/design_1/ipshared/df50/hdl"incdir="../../../../dpp.srcs/sources_1/bd/design_1/ipshared/1d04/hdl"incdir="../../../../dpp.srcs/sources_1/bd/design_1/ipshared/ec67/hdl"
single_reg_w_init.vhd,vhdl,xil_defaultlib,../../../../dpp.srcs/sources_1/bd/design_1/ipshared/3280/hdl/single_reg_w_init.vhd,incdir="../../../../dpp.srcs/sources_1/bd/design_1/ipshared/c923"incdir="../../../../dpp.srcs/sources_1/bd/design_1/ipshared/3280/hdl"incdir="../../../../dpp.srcs/sources_1/bd/design_1/ipshared/ec67/hdl"incdir="../../../../dpp.srcs/sources_1/bd/design_1/ipshared/c923"incdir="../../../../dpp.srcs/sources_1/bd/design_1/ipshared/3280/hdl"incdir="../../../../dpp.srcs/sources_1/bd/design_1/ipshared/df50/hdl"incdir="../../../../dpp.srcs/sources_1/bd/design_1/ipshared/1d04/hdl"incdir="../../../../dpp.srcs/sources_1/bd/design_1/ipshared/ec67/hdl"
xlclockdriver_rd.vhd,vhdl,xil_defaultlib,../../../../dpp.srcs/sources_1/bd/design_1/ipshared/3280/hdl/xlclockdriver_rd.vhd,incdir="../../../../dpp.srcs/sources_1/bd/design_1/ipshared/c923"incdir="../../../../dpp.srcs/sources_1/bd/design_1/ipshared/3280/hdl"incdir="../../../../dpp.srcs/sources_1/bd/design_1/ipshared/ec67/hdl"incdir="../../../../dpp.srcs/sources_1/bd/design_1/ipshared/c923"incdir="../../../../dpp.srcs/sources_1/bd/design_1/ipshared/3280/hdl"incdir="../../../../dpp.srcs/sources_1/bd/design_1/ipshared/df50/hdl"incdir="../../../../dpp.srcs/sources_1/bd/design_1/ipshared/1d04/hdl"incdir="../../../../dpp.srcs/sources_1/bd/design_1/ipshared/ec67/hdl"
ip_scope_entity_declarations.vhd,vhdl,xil_defaultlib,../../../../dpp.srcs/sources_1/bd/design_1/ipshared/3280/hdl/ip_scope_entity_declarations.vhd,incdir="../../../../dpp.srcs/sources_1/bd/design_1/ipshared/c923"incdir="../../../../dpp.srcs/sources_1/bd/design_1/ipshared/3280/hdl"incdir="../../../../dpp.srcs/sources_1/bd/design_1/ipshared/ec67/hdl"incdir="../../../../dpp.srcs/sources_1/bd/design_1/ipshared/c923"incdir="../../../../dpp.srcs/sources_1/bd/design_1/ipshared/3280/hdl"incdir="../../../../dpp.srcs/sources_1/bd/design_1/ipshared/df50/hdl"incdir="../../../../dpp.srcs/sources_1/bd/design_1/ipshared/1d04/hdl"incdir="../../../../dpp.srcs/sources_1/bd/design_1/ipshared/ec67/hdl"
ip_scope.vhd,vhdl,xil_defaultlib,../../../../dpp.srcs/sources_1/bd/design_1/ipshared/3280/hdl/ip_scope.vhd,incdir="../../../../dpp.srcs/sources_1/bd/design_1/ipshared/c923"incdir="../../../../dpp.srcs/sources_1/bd/design_1/ipshared/3280/hdl"incdir="../../../../dpp.srcs/sources_1/bd/design_1/ipshared/ec67/hdl"incdir="../../../../dpp.srcs/sources_1/bd/design_1/ipshared/c923"incdir="../../../../dpp.srcs/sources_1/bd/design_1/ipshared/3280/hdl"incdir="../../../../dpp.srcs/sources_1/bd/design_1/ipshared/df50/hdl"incdir="../../../../dpp.srcs/sources_1/bd/design_1/ipshared/1d04/hdl"incdir="../../../../dpp.srcs/sources_1/bd/design_1/ipshared/ec67/hdl"
axibusdomain_axi_lite_interface_verilog.v,verilog,xil_defaultlib,../../../../dpp.srcs/sources_1/bd/design_1/ipshared/3280/hdl/axibusdomain_axi_lite_interface_verilog.v,incdir="../../../../dpp.srcs/sources_1/bd/design_1/ipshared/c923"incdir="../../../../dpp.srcs/sources_1/bd/design_1/ipshared/3280/hdl"incdir="../../../../dpp.srcs/sources_1/bd/design_1/ipshared/ec67/hdl"incdir="../../../../dpp.srcs/sources_1/bd/design_1/ipshared/c923"incdir="../../../../dpp.srcs/sources_1/bd/design_1/ipshared/3280/hdl"incdir="../../../../dpp.srcs/sources_1/bd/design_1/ipshared/df50/hdl"incdir="../../../../dpp.srcs/sources_1/bd/design_1/ipshared/1d04/hdl"incdir="../../../../dpp.srcs/sources_1/bd/design_1/ipshared/ec67/hdl"
synth_reg.v,verilog,xil_defaultlib,../../../../dpp.srcs/sources_1/bd/design_1/ipshared/3280/hdl/synth_reg.v,incdir="../../../../dpp.srcs/sources_1/bd/design_1/ipshared/c923"incdir="../../../../dpp.srcs/sources_1/bd/design_1/ipshared/3280/hdl"incdir="../../../../dpp.srcs/sources_1/bd/design_1/ipshared/ec67/hdl"incdir="../../../../dpp.srcs/sources_1/bd/design_1/ipshared/c923"incdir="../../../../dpp.srcs/sources_1/bd/design_1/ipshared/3280/hdl"incdir="../../../../dpp.srcs/sources_1/bd/design_1/ipshared/df50/hdl"incdir="../../../../dpp.srcs/sources_1/bd/design_1/ipshared/1d04/hdl"incdir="../../../../dpp.srcs/sources_1/bd/design_1/ipshared/ec67/hdl"
synth_reg_w_init.v,verilog,xil_defaultlib,../../../../dpp.srcs/sources_1/bd/design_1/ipshared/3280/hdl/synth_reg_w_init.v,incdir="../../../../dpp.srcs/sources_1/bd/design_1/ipshared/c923"incdir="../../../../dpp.srcs/sources_1/bd/design_1/ipshared/3280/hdl"incdir="../../../../dpp.srcs/sources_1/bd/design_1/ipshared/ec67/hdl"incdir="../../../../dpp.srcs/sources_1/bd/design_1/ipshared/c923"incdir="../../../../dpp.srcs/sources_1/bd/design_1/ipshared/3280/hdl"incdir="../../../../dpp.srcs/sources_1/bd/design_1/ipshared/df50/hdl"incdir="../../../../dpp.srcs/sources_1/bd/design_1/ipshared/1d04/hdl"incdir="../../../../dpp.srcs/sources_1/bd/design_1/ipshared/ec67/hdl"
convert_type.v,verilog,xil_defaultlib,../../../../dpp.srcs/sources_1/bd/design_1/ipshared/3280/hdl/convert_type.v,incdir="../../../../dpp.srcs/sources_1/bd/design_1/ipshared/c923"incdir="../../../../dpp.srcs/sources_1/bd/design_1/ipshared/3280/hdl"incdir="../../../../dpp.srcs/sources_1/bd/design_1/ipshared/ec67/hdl"incdir="../../../../dpp.srcs/sources_1/bd/design_1/ipshared/c923"incdir="../../../../dpp.srcs/sources_1/bd/design_1/ipshared/3280/hdl"incdir="../../../../dpp.srcs/sources_1/bd/design_1/ipshared/df50/hdl"incdir="../../../../dpp.srcs/sources_1/bd/design_1/ipshared/1d04/hdl"incdir="../../../../dpp.srcs/sources_1/bd/design_1/ipshared/ec67/hdl"
design_1_ip_scope_0_0.v,verilog,xil_defaultlib,../../../bd/design_1/ip/design_1_ip_scope_0_0/sim/design_1_ip_scope_0_0.v,incdir="../../../../dpp.srcs/sources_1/bd/design_1/ipshared/c923"incdir="../../../../dpp.srcs/sources_1/bd/design_1/ipshared/3280/hdl"incdir="../../../../dpp.srcs/sources_1/bd/design_1/ipshared/ec67/hdl"incdir="../../../../dpp.srcs/sources_1/bd/design_1/ipshared/c923"incdir="../../../../dpp.srcs/sources_1/bd/design_1/ipshared/3280/hdl"incdir="../../../../dpp.srcs/sources_1/bd/design_1/ipshared/df50/hdl"incdir="../../../../dpp.srcs/sources_1/bd/design_1/ipshared/1d04/hdl"incdir="../../../../dpp.srcs/sources_1/bd/design_1/ipshared/ec67/hdl"
top.vhd,vhdl,xil_defaultlib,../../../bd/design_1/ipshared/d115/src/top.vhd,incdir="../../../../dpp.srcs/sources_1/bd/design_1/ipshared/c923"incdir="../../../../dpp.srcs/sources_1/bd/design_1/ipshared/3280/hdl"incdir="../../../../dpp.srcs/sources_1/bd/design_1/ipshared/ec67/hdl"incdir="../../../../dpp.srcs/sources_1/bd/design_1/ipshared/c923"incdir="../../../../dpp.srcs/sources_1/bd/design_1/ipshared/3280/hdl"incdir="../../../../dpp.srcs/sources_1/bd/design_1/ipshared/df50/hdl"incdir="../../../../dpp.srcs/sources_1/bd/design_1/ipshared/1d04/hdl"incdir="../../../../dpp.srcs/sources_1/bd/design_1/ipshared/ec67/hdl"
design_1_ip_dbg_invert_and_of_0_0.vhd,vhdl,xil_defaultlib,../../../bd/design_1/ip/design_1_ip_dbg_invert_and_of_0_0/sim/design_1_ip_dbg_invert_and_of_0_0.vhd,incdir="../../../../dpp.srcs/sources_1/bd/design_1/ipshared/c923"incdir="../../../../dpp.srcs/sources_1/bd/design_1/ipshared/3280/hdl"incdir="../../../../dpp.srcs/sources_1/bd/design_1/ipshared/ec67/hdl"incdir="../../../../dpp.srcs/sources_1/bd/design_1/ipshared/c923"incdir="../../../../dpp.srcs/sources_1/bd/design_1/ipshared/3280/hdl"incdir="../../../../dpp.srcs/sources_1/bd/design_1/ipshared/df50/hdl"incdir="../../../../dpp.srcs/sources_1/bd/design_1/ipshared/1d04/hdl"incdir="../../../../dpp.srcs/sources_1/bd/design_1/ipshared/ec67/hdl"
invert_and_offset_v1_0_S00_AXI.vhd,vhdl,xil_defaultlib,../../../bd/design_1/ipshared/32ad/hdl/invert_and_offset_v1_0_S00_AXI.vhd,incdir="../../../../dpp.srcs/sources_1/bd/design_1/ipshared/c923"incdir="../../../../dpp.srcs/sources_1/bd/design_1/ipshared/3280/hdl"incdir="../../../../dpp.srcs/sources_1/bd/design_1/ipshared/ec67/hdl"incdir="../../../../dpp.srcs/sources_1/bd/design_1/ipshared/c923"incdir="../../../../dpp.srcs/sources_1/bd/design_1/ipshared/3280/hdl"incdir="../../../../dpp.srcs/sources_1/bd/design_1/ipshared/df50/hdl"incdir="../../../../dpp.srcs/sources_1/bd/design_1/ipshared/1d04/hdl"incdir="../../../../dpp.srcs/sources_1/bd/design_1/ipshared/ec67/hdl"
invert_and_offset_v1_0.vhd,vhdl,xil_defaultlib,../../../bd/design_1/ipshared/32ad/hdl/invert_and_offset_v1_0.vhd,incdir="../../../../dpp.srcs/sources_1/bd/design_1/ipshared/c923"incdir="../../../../dpp.srcs/sources_1/bd/design_1/ipshared/3280/hdl"incdir="../../../../dpp.srcs/sources_1/bd/design_1/ipshared/ec67/hdl"incdir="../../../../dpp.srcs/sources_1/bd/design_1/ipshared/c923"incdir="../../../../dpp.srcs/sources_1/bd/design_1/ipshared/3280/hdl"incdir="../../../../dpp.srcs/sources_1/bd/design_1/ipshared/df50/hdl"incdir="../../../../dpp.srcs/sources_1/bd/design_1/ipshared/1d04/hdl"incdir="../../../../dpp.srcs/sources_1/bd/design_1/ipshared/ec67/hdl"
design_1_invert_and_offset_0_0.vhd,vhdl,xil_defaultlib,../../../bd/design_1/ip/design_1_invert_and_offset_0_0/sim/design_1_invert_and_offset_0_0.vhd,incdir="../../../../dpp.srcs/sources_1/bd/design_1/ipshared/c923"incdir="../../../../dpp.srcs/sources_1/bd/design_1/ipshared/3280/hdl"incdir="../../../../dpp.srcs/sources_1/bd/design_1/ipshared/ec67/hdl"incdir="../../../../dpp.srcs/sources_1/bd/design_1/ipshared/c923"incdir="../../../../dpp.srcs/sources_1/bd/design_1/ipshared/3280/hdl"incdir="../../../../dpp.srcs/sources_1/bd/design_1/ipshared/df50/hdl"incdir="../../../../dpp.srcs/sources_1/bd/design_1/ipshared/1d04/hdl"incdir="../../../../dpp.srcs/sources_1/bd/design_1/ipshared/ec67/hdl"
top.vhd,vhdl,xil_defaultlib,../../../bd/design_1/ipshared/a009/src/top.vhd,incdir="../../../../dpp.srcs/sources_1/bd/design_1/ipshared/c923"incdir="../../../../dpp.srcs/sources_1/bd/design_1/ipshared/3280/hdl"incdir="../../../../dpp.srcs/sources_1/bd/design_1/ipshared/ec67/hdl"incdir="../../../../dpp.srcs/sources_1/bd/design_1/ipshared/c923"incdir="../../../../dpp.srcs/sources_1/bd/design_1/ipshared/3280/hdl"incdir="../../../../dpp.srcs/sources_1/bd/design_1/ipshared/df50/hdl"incdir="../../../../dpp.srcs/sources_1/bd/design_1/ipshared/1d04/hdl"incdir="../../../../dpp.srcs/sources_1/bd/design_1/ipshared/ec67/hdl"
design_1_ip_dbg_term_pulse_co_0_3.vhd,vhdl,xil_defaultlib,../../../bd/design_1/ip/design_1_ip_dbg_term_pulse_co_0_3/sim/design_1_ip_dbg_term_pulse_co_0_3.vhd,incdir="../../../../dpp.srcs/sources_1/bd/design_1/ipshared/c923"incdir="../../../../dpp.srcs/sources_1/bd/design_1/ipshared/3280/hdl"incdir="../../../../dpp.srcs/sources_1/bd/design_1/ipshared/ec67/hdl"incdir="../../../../dpp.srcs/sources_1/bd/design_1/ipshared/c923"incdir="../../../../dpp.srcs/sources_1/bd/design_1/ipshared/3280/hdl"incdir="../../../../dpp.srcs/sources_1/bd/design_1/ipshared/df50/hdl"incdir="../../../../dpp.srcs/sources_1/bd/design_1/ipshared/1d04/hdl"incdir="../../../../dpp.srcs/sources_1/bd/design_1/ipshared/ec67/hdl"
top.vhd,vhdl,xil_defaultlib,../../../bd/design_1/ipshared/f572/src/top.vhd,incdir="../../../../dpp.srcs/sources_1/bd/design_1/ipshared/c923"incdir="../../../../dpp.srcs/sources_1/bd/design_1/ipshared/3280/hdl"incdir="../../../../dpp.srcs/sources_1/bd/design_1/ipshared/ec67/hdl"incdir="../../../../dpp.srcs/sources_1/bd/design_1/ipshared/c923"incdir="../../../../dpp.srcs/sources_1/bd/design_1/ipshared/3280/hdl"incdir="../../../../dpp.srcs/sources_1/bd/design_1/ipshared/df50/hdl"incdir="../../../../dpp.srcs/sources_1/bd/design_1/ipshared/1d04/hdl"incdir="../../../../dpp.srcs/sources_1/bd/design_1/ipshared/ec67/hdl"
design_1_ip_dbg_pulse_cond_sl_0_0.vhd,vhdl,xil_defaultlib,../../../bd/design_1/ip/design_1_ip_dbg_pulse_cond_sl_0_0/sim/design_1_ip_dbg_pulse_cond_sl_0_0.vhd,incdir="../../../../dpp.srcs/sources_1/bd/design_1/ipshared/c923"incdir="../../../../dpp.srcs/sources_1/bd/design_1/ipshared/3280/hdl"incdir="../../../../dpp.srcs/sources_1/bd/design_1/ipshared/ec67/hdl"incdir="../../../../dpp.srcs/sources_1/bd/design_1/ipshared/c923"incdir="../../../../dpp.srcs/sources_1/bd/design_1/ipshared/3280/hdl"incdir="../../../../dpp.srcs/sources_1/bd/design_1/ipshared/df50/hdl"incdir="../../../../dpp.srcs/sources_1/bd/design_1/ipshared/1d04/hdl"incdir="../../../../dpp.srcs/sources_1/bd/design_1/ipshared/ec67/hdl"
ip_shaper_blk_mem_gen_i0.v,verilog,xil_defaultlib,../../../bd/design_1/ip/design_1_ip_shaper_0_0/ip_shaper_blk_mem_gen_i0/sim/ip_shaper_blk_mem_gen_i0.v,incdir="../../../../dpp.srcs/sources_1/bd/design_1/ipshared/c923"incdir="../../../../dpp.srcs/sources_1/bd/design_1/ipshared/3280/hdl"incdir="../../../../dpp.srcs/sources_1/bd/design_1/ipshared/ec67/hdl"incdir="../../../../dpp.srcs/sources_1/bd/design_1/ipshared/c923"incdir="../../../../dpp.srcs/sources_1/bd/design_1/ipshared/3280/hdl"incdir="../../../../dpp.srcs/sources_1/bd/design_1/ipshared/df50/hdl"incdir="../../../../dpp.srcs/sources_1/bd/design_1/ipshared/1d04/hdl"incdir="../../../../dpp.srcs/sources_1/bd/design_1/ipshared/ec67/hdl"
ip_shaper_blk_mem_gen_i1.v,verilog,xil_defaultlib,../../../bd/design_1/ip/design_1_ip_shaper_0_0/ip_shaper_blk_mem_gen_i1/sim/ip_shaper_blk_mem_gen_i1.v,incdir="../../../../dpp.srcs/sources_1/bd/design_1/ipshared/c923"incdir="../../../../dpp.srcs/sources_1/bd/design_1/ipshared/3280/hdl"incdir="../../../../dpp.srcs/sources_1/bd/design_1/ipshared/ec67/hdl"incdir="../../../../dpp.srcs/sources_1/bd/design_1/ipshared/c923"incdir="../../../../dpp.srcs/sources_1/bd/design_1/ipshared/3280/hdl"incdir="../../../../dpp.srcs/sources_1/bd/design_1/ipshared/df50/hdl"incdir="../../../../dpp.srcs/sources_1/bd/design_1/ipshared/1d04/hdl"incdir="../../../../dpp.srcs/sources_1/bd/design_1/ipshared/ec67/hdl"
ip_shaper_c_addsub_v12_0_i0.vhd,vhdl,xil_defaultlib,../../../bd/design_1/ip/design_1_ip_shaper_0_0/ip_shaper_c_addsub_v12_0_i0/sim/ip_shaper_c_addsub_v12_0_i0.vhd,incdir="../../../../dpp.srcs/sources_1/bd/design_1/ipshared/c923"incdir="../../../../dpp.srcs/sources_1/bd/design_1/ipshared/3280/hdl"incdir="../../../../dpp.srcs/sources_1/bd/design_1/ipshared/ec67/hdl"incdir="../../../../dpp.srcs/sources_1/bd/design_1/ipshared/c923"incdir="../../../../dpp.srcs/sources_1/bd/design_1/ipshared/3280/hdl"incdir="../../../../dpp.srcs/sources_1/bd/design_1/ipshared/df50/hdl"incdir="../../../../dpp.srcs/sources_1/bd/design_1/ipshared/1d04/hdl"incdir="../../../../dpp.srcs/sources_1/bd/design_1/ipshared/ec67/hdl"
ip_shaper_c_addsub_v12_0_i1.vhd,vhdl,xil_defaultlib,../../../bd/design_1/ip/design_1_ip_shaper_0_0/ip_shaper_c_addsub_v12_0_i1/sim/ip_shaper_c_addsub_v12_0_i1.vhd,incdir="../../../../dpp.srcs/sources_1/bd/design_1/ipshared/c923"incdir="../../../../dpp.srcs/sources_1/bd/design_1/ipshared/3280/hdl"incdir="../../../../dpp.srcs/sources_1/bd/design_1/ipshared/ec67/hdl"incdir="../../../../dpp.srcs/sources_1/bd/design_1/ipshared/c923"incdir="../../../../dpp.srcs/sources_1/bd/design_1/ipshared/3280/hdl"incdir="../../../../dpp.srcs/sources_1/bd/design_1/ipshared/df50/hdl"incdir="../../../../dpp.srcs/sources_1/bd/design_1/ipshared/1d04/hdl"incdir="../../../../dpp.srcs/sources_1/bd/design_1/ipshared/ec67/hdl"
ip_shaper_c_addsub_v12_0_i2.vhd,vhdl,xil_defaultlib,../../../bd/design_1/ip/design_1_ip_shaper_0_0/ip_shaper_c_addsub_v12_0_i2/sim/ip_shaper_c_addsub_v12_0_i2.vhd,incdir="../../../../dpp.srcs/sources_1/bd/design_1/ipshared/c923"incdir="../../../../dpp.srcs/sources_1/bd/design_1/ipshared/3280/hdl"incdir="../../../../dpp.srcs/sources_1/bd/design_1/ipshared/ec67/hdl"incdir="../../../../dpp.srcs/sources_1/bd/design_1/ipshared/c923"incdir="../../../../dpp.srcs/sources_1/bd/design_1/ipshared/3280/hdl"incdir="../../../../dpp.srcs/sources_1/bd/design_1/ipshared/df50/hdl"incdir="../../../../dpp.srcs/sources_1/bd/design_1/ipshared/1d04/hdl"incdir="../../../../dpp.srcs/sources_1/bd/design_1/ipshared/ec67/hdl"
ip_shaper_c_counter_binary_v12_0_i0.vhd,vhdl,xil_defaultlib,../../../bd/design_1/ip/design_1_ip_shaper_0_0/ip_shaper_c_counter_binary_v12_0_i0/sim/ip_shaper_c_counter_binary_v12_0_i0.vhd,incdir="../../../../dpp.srcs/sources_1/bd/design_1/ipshared/c923"incdir="../../../../dpp.srcs/sources_1/bd/design_1/ipshared/3280/hdl"incdir="../../../../dpp.srcs/sources_1/bd/design_1/ipshared/ec67/hdl"incdir="../../../../dpp.srcs/sources_1/bd/design_1/ipshared/c923"incdir="../../../../dpp.srcs/sources_1/bd/design_1/ipshared/3280/hdl"incdir="../../../../dpp.srcs/sources_1/bd/design_1/ipshared/df50/hdl"incdir="../../../../dpp.srcs/sources_1/bd/design_1/ipshared/1d04/hdl"incdir="../../../../dpp.srcs/sources_1/bd/design_1/ipshared/ec67/hdl"
xbip_bram18k_v3_0_vh_rfs.vhd,vhdl,xbip_bram18k_v3_0_6,../../../../dpp.srcs/sources_1/bd/design_1/ip/design_1_ip_shaper_0_0/ip_shaper_mult_gen_v12_0_i0/hdl/xbip_bram18k_v3_0_vh_rfs.vhd,incdir="../../../../dpp.srcs/sources_1/bd/design_1/ipshared/c923"incdir="../../../../dpp.srcs/sources_1/bd/design_1/ipshared/3280/hdl"incdir="../../../../dpp.srcs/sources_1/bd/design_1/ipshared/ec67/hdl"incdir="../../../../dpp.srcs/sources_1/bd/design_1/ipshared/c923"incdir="../../../../dpp.srcs/sources_1/bd/design_1/ipshared/3280/hdl"incdir="../../../../dpp.srcs/sources_1/bd/design_1/ipshared/df50/hdl"incdir="../../../../dpp.srcs/sources_1/bd/design_1/ipshared/1d04/hdl"incdir="../../../../dpp.srcs/sources_1/bd/design_1/ipshared/ec67/hdl"
mult_gen_v12_0_vh_rfs.vhd,vhdl,mult_gen_v12_0_15,../../../../dpp.srcs/sources_1/bd/design_1/ip/design_1_ip_shaper_0_0/ip_shaper_mult_gen_v12_0_i0/hdl/mult_gen_v12_0_vh_rfs.vhd,incdir="../../../../dpp.srcs/sources_1/bd/design_1/ipshared/c923"incdir="../../../../dpp.srcs/sources_1/bd/design_1/ipshared/3280/hdl"incdir="../../../../dpp.srcs/sources_1/bd/design_1/ipshared/ec67/hdl"incdir="../../../../dpp.srcs/sources_1/bd/design_1/ipshared/c923"incdir="../../../../dpp.srcs/sources_1/bd/design_1/ipshared/3280/hdl"incdir="../../../../dpp.srcs/sources_1/bd/design_1/ipshared/df50/hdl"incdir="../../../../dpp.srcs/sources_1/bd/design_1/ipshared/1d04/hdl"incdir="../../../../dpp.srcs/sources_1/bd/design_1/ipshared/ec67/hdl"
ip_shaper_mult_gen_v12_0_i0.vhd,vhdl,xil_defaultlib,../../../bd/design_1/ip/design_1_ip_shaper_0_0/ip_shaper_mult_gen_v12_0_i0/sim/ip_shaper_mult_gen_v12_0_i0.vhd,incdir="../../../../dpp.srcs/sources_1/bd/design_1/ipshared/c923"incdir="../../../../dpp.srcs/sources_1/bd/design_1/ipshared/3280/hdl"incdir="../../../../dpp.srcs/sources_1/bd/design_1/ipshared/ec67/hdl"incdir="../../../../dpp.srcs/sources_1/bd/design_1/ipshared/c923"incdir="../../../../dpp.srcs/sources_1/bd/design_1/ipshared/3280/hdl"incdir="../../../../dpp.srcs/sources_1/bd/design_1/ipshared/df50/hdl"incdir="../../../../dpp.srcs/sources_1/bd/design_1/ipshared/1d04/hdl"incdir="../../../../dpp.srcs/sources_1/bd/design_1/ipshared/ec67/hdl"
ip_shaper_mult_gen_v12_0_i1.vhd,vhdl,xil_defaultlib,../../../bd/design_1/ip/design_1_ip_shaper_0_0/ip_shaper_mult_gen_v12_0_i1/sim/ip_shaper_mult_gen_v12_0_i1.vhd,incdir="../../../../dpp.srcs/sources_1/bd/design_1/ipshared/c923"incdir="../../../../dpp.srcs/sources_1/bd/design_1/ipshared/3280/hdl"incdir="../../../../dpp.srcs/sources_1/bd/design_1/ipshared/ec67/hdl"incdir="../../../../dpp.srcs/sources_1/bd/design_1/ipshared/c923"incdir="../../../../dpp.srcs/sources_1/bd/design_1/ipshared/3280/hdl"incdir="../../../../dpp.srcs/sources_1/bd/design_1/ipshared/df50/hdl"incdir="../../../../dpp.srcs/sources_1/bd/design_1/ipshared/1d04/hdl"incdir="../../../../dpp.srcs/sources_1/bd/design_1/ipshared/ec67/hdl"
ip_shaper_mult_gen_v12_0_i2.vhd,vhdl,xil_defaultlib,../../../bd/design_1/ip/design_1_ip_shaper_0_0/ip_shaper_mult_gen_v12_0_i2/sim/ip_shaper_mult_gen_v12_0_i2.vhd,incdir="../../../../dpp.srcs/sources_1/bd/design_1/ipshared/c923"incdir="../../../../dpp.srcs/sources_1/bd/design_1/ipshared/3280/hdl"incdir="../../../../dpp.srcs/sources_1/bd/design_1/ipshared/ec67/hdl"incdir="../../../../dpp.srcs/sources_1/bd/design_1/ipshared/c923"incdir="../../../../dpp.srcs/sources_1/bd/design_1/ipshared/3280/hdl"incdir="../../../../dpp.srcs/sources_1/bd/design_1/ipshared/df50/hdl"incdir="../../../../dpp.srcs/sources_1/bd/design_1/ipshared/1d04/hdl"incdir="../../../../dpp.srcs/sources_1/bd/design_1/ipshared/ec67/hdl"
ip_shaper_mult_gen_v12_0_i3.vhd,vhdl,xil_defaultlib,../../../bd/design_1/ip/design_1_ip_shaper_0_0/ip_shaper_mult_gen_v12_0_i3/sim/ip_shaper_mult_gen_v12_0_i3.vhd,incdir="../../../../dpp.srcs/sources_1/bd/design_1/ipshared/c923"incdir="../../../../dpp.srcs/sources_1/bd/design_1/ipshared/3280/hdl"incdir="../../../../dpp.srcs/sources_1/bd/design_1/ipshared/ec67/hdl"incdir="../../../../dpp.srcs/sources_1/bd/design_1/ipshared/c923"incdir="../../../../dpp.srcs/sources_1/bd/design_1/ipshared/3280/hdl"incdir="../../../../dpp.srcs/sources_1/bd/design_1/ipshared/df50/hdl"incdir="../../../../dpp.srcs/sources_1/bd/design_1/ipshared/1d04/hdl"incdir="../../../../dpp.srcs/sources_1/bd/design_1/ipshared/ec67/hdl"
ip_shaper_entity_declarations.vhd,vhdl,xil_defaultlib,../../../../dpp.srcs/sources_1/bd/design_1/ipshared/df50/hdl/ip_shaper_entity_declarations.vhd,incdir="../../../../dpp.srcs/sources_1/bd/design_1/ipshared/c923"incdir="../../../../dpp.srcs/sources_1/bd/design_1/ipshared/3280/hdl"incdir="../../../../dpp.srcs/sources_1/bd/design_1/ipshared/ec67/hdl"incdir="../../../../dpp.srcs/sources_1/bd/design_1/ipshared/c923"incdir="../../../../dpp.srcs/sources_1/bd/design_1/ipshared/3280/hdl"incdir="../../../../dpp.srcs/sources_1/bd/design_1/ipshared/df50/hdl"incdir="../../../../dpp.srcs/sources_1/bd/design_1/ipshared/1d04/hdl"incdir="../../../../dpp.srcs/sources_1/bd/design_1/ipshared/ec67/hdl"
ip_shaper.vhd,vhdl,xil_defaultlib,../../../../dpp.srcs/sources_1/bd/design_1/ipshared/df50/hdl/ip_shaper.vhd,incdir="../../../../dpp.srcs/sources_1/bd/design_1/ipshared/c923"incdir="../../../../dpp.srcs/sources_1/bd/design_1/ipshared/3280/hdl"incdir="../../../../dpp.srcs/sources_1/bd/design_1/ipshared/ec67/hdl"incdir="../../../../dpp.srcs/sources_1/bd/design_1/ipshared/c923"incdir="../../../../dpp.srcs/sources_1/bd/design_1/ipshared/3280/hdl"incdir="../../../../dpp.srcs/sources_1/bd/design_1/ipshared/df50/hdl"incdir="../../../../dpp.srcs/sources_1/bd/design_1/ipshared/1d04/hdl"incdir="../../../../dpp.srcs/sources_1/bd/design_1/ipshared/ec67/hdl"
axi_clk_domain_axi_lite_interface_verilog.v,verilog,xil_defaultlib,../../../../dpp.srcs/sources_1/bd/design_1/ipshared/df50/hdl/axi_clk_domain_axi_lite_interface_verilog.v,incdir="../../../../dpp.srcs/sources_1/bd/design_1/ipshared/c923"incdir="../../../../dpp.srcs/sources_1/bd/design_1/ipshared/3280/hdl"incdir="../../../../dpp.srcs/sources_1/bd/design_1/ipshared/ec67/hdl"incdir="../../../../dpp.srcs/sources_1/bd/design_1/ipshared/c923"incdir="../../../../dpp.srcs/sources_1/bd/design_1/ipshared/3280/hdl"incdir="../../../../dpp.srcs/sources_1/bd/design_1/ipshared/df50/hdl"incdir="../../../../dpp.srcs/sources_1/bd/design_1/ipshared/1d04/hdl"incdir="../../../../dpp.srcs/sources_1/bd/design_1/ipshared/ec67/hdl"
design_1_ip_shaper_0_0.v,verilog,xil_defaultlib,../../../bd/design_1/ip/design_1_ip_shaper_0_0/sim/design_1_ip_shaper_0_0.v,incdir="../../../../dpp.srcs/sources_1/bd/design_1/ipshared/c923"incdir="../../../../dpp.srcs/sources_1/bd/design_1/ipshared/3280/hdl"incdir="../../../../dpp.srcs/sources_1/bd/design_1/ipshared/ec67/hdl"incdir="../../../../dpp.srcs/sources_1/bd/design_1/ipshared/c923"incdir="../../../../dpp.srcs/sources_1/bd/design_1/ipshared/3280/hdl"incdir="../../../../dpp.srcs/sources_1/bd/design_1/ipshared/df50/hdl"incdir="../../../../dpp.srcs/sources_1/bd/design_1/ipshared/1d04/hdl"incdir="../../../../dpp.srcs/sources_1/bd/design_1/ipshared/ec67/hdl"
blr_pkg.vhd,vhdl,xil_defaultlib,../../../bd/design_1/ipshared/21de/src/blr_pkg.vhd,incdir="../../../../dpp.srcs/sources_1/bd/design_1/ipshared/c923"incdir="../../../../dpp.srcs/sources_1/bd/design_1/ipshared/3280/hdl"incdir="../../../../dpp.srcs/sources_1/bd/design_1/ipshared/ec67/hdl"incdir="../../../../dpp.srcs/sources_1/bd/design_1/ipshared/c923"incdir="../../../../dpp.srcs/sources_1/bd/design_1/ipshared/3280/hdl"incdir="../../../../dpp.srcs/sources_1/bd/design_1/ipshared/df50/hdl"incdir="../../../../dpp.srcs/sources_1/bd/design_1/ipshared/1d04/hdl"incdir="../../../../dpp.srcs/sources_1/bd/design_1/ipshared/ec67/hdl"
blr.vhd,vhdl,xil_defaultlib,../../../bd/design_1/ipshared/21de/src/blr.vhd,incdir="../../../../dpp.srcs/sources_1/bd/design_1/ipshared/c923"incdir="../../../../dpp.srcs/sources_1/bd/design_1/ipshared/3280/hdl"incdir="../../../../dpp.srcs/sources_1/bd/design_1/ipshared/ec67/hdl"incdir="../../../../dpp.srcs/sources_1/bd/design_1/ipshared/c923"incdir="../../../../dpp.srcs/sources_1/bd/design_1/ipshared/3280/hdl"incdir="../../../../dpp.srcs/sources_1/bd/design_1/ipshared/df50/hdl"incdir="../../../../dpp.srcs/sources_1/bd/design_1/ipshared/1d04/hdl"incdir="../../../../dpp.srcs/sources_1/bd/design_1/ipshared/ec67/hdl"
comparator.vhd,vhdl,xil_defaultlib,../../../bd/design_1/ipshared/21de/src/comparator.vhd,incdir="../../../../dpp.srcs/sources_1/bd/design_1/ipshared/c923"incdir="../../../../dpp.srcs/sources_1/bd/design_1/ipshared/3280/hdl"incdir="../../../../dpp.srcs/sources_1/bd/design_1/ipshared/ec67/hdl"incdir="../../../../dpp.srcs/sources_1/bd/design_1/ipshared/c923"incdir="../../../../dpp.srcs/sources_1/bd/design_1/ipshared/3280/hdl"incdir="../../../../dpp.srcs/sources_1/bd/design_1/ipshared/df50/hdl"incdir="../../../../dpp.srcs/sources_1/bd/design_1/ipshared/1d04/hdl"incdir="../../../../dpp.srcs/sources_1/bd/design_1/ipshared/ec67/hdl"
counter.vhd,vhdl,xil_defaultlib,../../../bd/design_1/ipshared/21de/src/counter.vhd,incdir="../../../../dpp.srcs/sources_1/bd/design_1/ipshared/c923"incdir="../../../../dpp.srcs/sources_1/bd/design_1/ipshared/3280/hdl"incdir="../../../../dpp.srcs/sources_1/bd/design_1/ipshared/ec67/hdl"incdir="../../../../dpp.srcs/sources_1/bd/design_1/ipshared/c923"incdir="../../../../dpp.srcs/sources_1/bd/design_1/ipshared/3280/hdl"incdir="../../../../dpp.srcs/sources_1/bd/design_1/ipshared/df50/hdl"incdir="../../../../dpp.srcs/sources_1/bd/design_1/ipshared/1d04/hdl"incdir="../../../../dpp.srcs/sources_1/bd/design_1/ipshared/ec67/hdl"
delay_line.vhd,vhdl,xil_defaultlib,../../../bd/design_1/ipshared/21de/src/delay_line.vhd,incdir="../../../../dpp.srcs/sources_1/bd/design_1/ipshared/c923"incdir="../../../../dpp.srcs/sources_1/bd/design_1/ipshared/3280/hdl"incdir="../../../../dpp.srcs/sources_1/bd/design_1/ipshared/ec67/hdl"incdir="../../../../dpp.srcs/sources_1/bd/design_1/ipshared/c923"incdir="../../../../dpp.srcs/sources_1/bd/design_1/ipshared/3280/hdl"incdir="../../../../dpp.srcs/sources_1/bd/design_1/ipshared/df50/hdl"incdir="../../../../dpp.srcs/sources_1/bd/design_1/ipshared/1d04/hdl"incdir="../../../../dpp.srcs/sources_1/bd/design_1/ipshared/ec67/hdl"
ip_blr_v3_0_S00_AXI.vhd,vhdl,xil_defaultlib,../../../bd/design_1/ipshared/21de/hdl/ip_blr_v3_0_S00_AXI.vhd,incdir="../../../../dpp.srcs/sources_1/bd/design_1/ipshared/c923"incdir="../../../../dpp.srcs/sources_1/bd/design_1/ipshared/3280/hdl"incdir="../../../../dpp.srcs/sources_1/bd/design_1/ipshared/ec67/hdl"incdir="../../../../dpp.srcs/sources_1/bd/design_1/ipshared/c923"incdir="../../../../dpp.srcs/sources_1/bd/design_1/ipshared/3280/hdl"incdir="../../../../dpp.srcs/sources_1/bd/design_1/ipshared/df50/hdl"incdir="../../../../dpp.srcs/sources_1/bd/design_1/ipshared/1d04/hdl"incdir="../../../../dpp.srcs/sources_1/bd/design_1/ipshared/ec67/hdl"
sdp_ram.vhd,vhdl,xil_defaultlib,../../../bd/design_1/ipshared/21de/src/sdp_ram.vhd,incdir="../../../../dpp.srcs/sources_1/bd/design_1/ipshared/c923"incdir="../../../../dpp.srcs/sources_1/bd/design_1/ipshared/3280/hdl"incdir="../../../../dpp.srcs/sources_1/bd/design_1/ipshared/ec67/hdl"incdir="../../../../dpp.srcs/sources_1/bd/design_1/ipshared/c923"incdir="../../../../dpp.srcs/sources_1/bd/design_1/ipshared/3280/hdl"incdir="../../../../dpp.srcs/sources_1/bd/design_1/ipshared/df50/hdl"incdir="../../../../dpp.srcs/sources_1/bd/design_1/ipshared/1d04/hdl"incdir="../../../../dpp.srcs/sources_1/bd/design_1/ipshared/ec67/hdl"
ip_blr_v3_0.vhd,vhdl,xil_defaultlib,../../../bd/design_1/ipshared/21de/hdl/ip_blr_v3_0.vhd,incdir="../../../../dpp.srcs/sources_1/bd/design_1/ipshared/c923"incdir="../../../../dpp.srcs/sources_1/bd/design_1/ipshared/3280/hdl"incdir="../../../../dpp.srcs/sources_1/bd/design_1/ipshared/ec67/hdl"incdir="../../../../dpp.srcs/sources_1/bd/design_1/ipshared/c923"incdir="../../../../dpp.srcs/sources_1/bd/design_1/ipshared/3280/hdl"incdir="../../../../dpp.srcs/sources_1/bd/design_1/ipshared/df50/hdl"incdir="../../../../dpp.srcs/sources_1/bd/design_1/ipshared/1d04/hdl"incdir="../../../../dpp.srcs/sources_1/bd/design_1/ipshared/ec67/hdl"
design_1_ip_blr_0_0.vhd,vhdl,xil_defaultlib,../../../bd/design_1/ip/design_1_ip_blr_0_0/sim/design_1_ip_blr_0_0.vhd,incdir="../../../../dpp.srcs/sources_1/bd/design_1/ipshared/c923"incdir="../../../../dpp.srcs/sources_1/bd/design_1/ipshared/3280/hdl"incdir="../../../../dpp.srcs/sources_1/bd/design_1/ipshared/ec67/hdl"incdir="../../../../dpp.srcs/sources_1/bd/design_1/ipshared/c923"incdir="../../../../dpp.srcs/sources_1/bd/design_1/ipshared/3280/hdl"incdir="../../../../dpp.srcs/sources_1/bd/design_1/ipshared/df50/hdl"incdir="../../../../dpp.srcs/sources_1/bd/design_1/ipshared/1d04/hdl"incdir="../../../../dpp.srcs/sources_1/bd/design_1/ipshared/ec67/hdl"
dc_stabilizer.vhd,vhdl,xil_defaultlib,../../../bd/design_1/ipshared/6ff0/src/dc_stabilizer.vhd,incdir="../../../../dpp.srcs/sources_1/bd/design_1/ipshared/c923"incdir="../../../../dpp.srcs/sources_1/bd/design_1/ipshared/3280/hdl"incdir="../../../../dpp.srcs/sources_1/bd/design_1/ipshared/ec67/hdl"incdir="../../../../dpp.srcs/sources_1/bd/design_1/ipshared/c923"incdir="../../../../dpp.srcs/sources_1/bd/design_1/ipshared/3280/hdl"incdir="../../../../dpp.srcs/sources_1/bd/design_1/ipshared/df50/hdl"incdir="../../../../dpp.srcs/sources_1/bd/design_1/ipshared/1d04/hdl"incdir="../../../../dpp.srcs/sources_1/bd/design_1/ipshared/ec67/hdl"
ip_dc_stabilizer_v1_0_AXI_DC_STAB.vhd,vhdl,xil_defaultlib,../../../bd/design_1/ipshared/6ff0/hdl/ip_dc_stabilizer_v1_0_AXI_DC_STAB.vhd,incdir="../../../../dpp.srcs/sources_1/bd/design_1/ipshared/c923"incdir="../../../../dpp.srcs/sources_1/bd/design_1/ipshared/3280/hdl"incdir="../../../../dpp.srcs/sources_1/bd/design_1/ipshared/ec67/hdl"incdir="../../../../dpp.srcs/sources_1/bd/design_1/ipshared/c923"incdir="../../../../dpp.srcs/sources_1/bd/design_1/ipshared/3280/hdl"incdir="../../../../dpp.srcs/sources_1/bd/design_1/ipshared/df50/hdl"incdir="../../../../dpp.srcs/sources_1/bd/design_1/ipshared/1d04/hdl"incdir="../../../../dpp.srcs/sources_1/bd/design_1/ipshared/ec67/hdl"
ip_dc_stabilizer_v1_0.vhd,vhdl,xil_defaultlib,../../../bd/design_1/ipshared/6ff0/hdl/ip_dc_stabilizer_v1_0.vhd,incdir="../../../../dpp.srcs/sources_1/bd/design_1/ipshared/c923"incdir="../../../../dpp.srcs/sources_1/bd/design_1/ipshared/3280/hdl"incdir="../../../../dpp.srcs/sources_1/bd/design_1/ipshared/ec67/hdl"incdir="../../../../dpp.srcs/sources_1/bd/design_1/ipshared/c923"incdir="../../../../dpp.srcs/sources_1/bd/design_1/ipshared/3280/hdl"incdir="../../../../dpp.srcs/sources_1/bd/design_1/ipshared/df50/hdl"incdir="../../../../dpp.srcs/sources_1/bd/design_1/ipshared/1d04/hdl"incdir="../../../../dpp.srcs/sources_1/bd/design_1/ipshared/ec67/hdl"
design_1_ip_dc_stabilizer_0_0.vhd,vhdl,xil_defaultlib,../../../bd/design_1/ip/design_1_ip_dc_stabilizer_0_0/sim/design_1_ip_dc_stabilizer_0_0.vhd,incdir="../../../../dpp.srcs/sources_1/bd/design_1/ipshared/c923"incdir="../../../../dpp.srcs/sources_1/bd/design_1/ipshared/3280/hdl"incdir="../../../../dpp.srcs/sources_1/bd/design_1/ipshared/ec67/hdl"incdir="../../../../dpp.srcs/sources_1/bd/design_1/ipshared/c923"incdir="../../../../dpp.srcs/sources_1/bd/design_1/ipshared/3280/hdl"incdir="../../../../dpp.srcs/sources_1/bd/design_1/ipshared/df50/hdl"incdir="../../../../dpp.srcs/sources_1/bd/design_1/ipshared/1d04/hdl"incdir="../../../../dpp.srcs/sources_1/bd/design_1/ipshared/ec67/hdl"
bram_incr.vhd,vhdl,xil_defaultlib,../../../bd/design_1/ipshared/fbae/bram_incr.vhd,incdir="../../../../dpp.srcs/sources_1/bd/design_1/ipshared/c923"incdir="../../../../dpp.srcs/sources_1/bd/design_1/ipshared/3280/hdl"incdir="../../../../dpp.srcs/sources_1/bd/design_1/ipshared/ec67/hdl"incdir="../../../../dpp.srcs/sources_1/bd/design_1/ipshared/c923"incdir="../../../../dpp.srcs/sources_1/bd/design_1/ipshared/3280/hdl"incdir="../../../../dpp.srcs/sources_1/bd/design_1/ipshared/df50/hdl"incdir="../../../../dpp.srcs/sources_1/bd/design_1/ipshared/1d04/hdl"incdir="../../../../dpp.srcs/sources_1/bd/design_1/ipshared/ec67/hdl"
design_1_bram_incr_0_0.vhd,vhdl,xil_defaultlib,../../../bd/design_1/ip/design_1_bram_incr_0_0/sim/design_1_bram_incr_0_0.vhd,incdir="../../../../dpp.srcs/sources_1/bd/design_1/ipshared/c923"incdir="../../../../dpp.srcs/sources_1/bd/design_1/ipshared/3280/hdl"incdir="../../../../dpp.srcs/sources_1/bd/design_1/ipshared/ec67/hdl"incdir="../../../../dpp.srcs/sources_1/bd/design_1/ipshared/c923"incdir="../../../../dpp.srcs/sources_1/bd/design_1/ipshared/3280/hdl"incdir="../../../../dpp.srcs/sources_1/bd/design_1/ipshared/df50/hdl"incdir="../../../../dpp.srcs/sources_1/bd/design_1/ipshared/1d04/hdl"incdir="../../../../dpp.srcs/sources_1/bd/design_1/ipshared/ec67/hdl"
axi_bram_ctrl_v4_1_rfs.vhd,vhdl,axi_bram_ctrl_v4_1_1,../../../../dpp.srcs/sources_1/bd/design_1/ipshared/70bf/hdl/axi_bram_ctrl_v4_1_rfs.vhd,incdir="../../../../dpp.srcs/sources_1/bd/design_1/ipshared/c923"incdir="../../../../dpp.srcs/sources_1/bd/design_1/ipshared/3280/hdl"incdir="../../../../dpp.srcs/sources_1/bd/design_1/ipshared/ec67/hdl"incdir="../../../../dpp.srcs/sources_1/bd/design_1/ipshared/c923"incdir="../../../../dpp.srcs/sources_1/bd/design_1/ipshared/3280/hdl"incdir="../../../../dpp.srcs/sources_1/bd/design_1/ipshared/df50/hdl"incdir="../../../../dpp.srcs/sources_1/bd/design_1/ipshared/1d04/hdl"incdir="../../../../dpp.srcs/sources_1/bd/design_1/ipshared/ec67/hdl"
design_1_axi_bram_ctrl_0_0.vhd,vhdl,xil_defaultlib,../../../bd/design_1/ip/design_1_axi_bram_ctrl_0_0/sim/design_1_axi_bram_ctrl_0_0.vhd,incdir="../../../../dpp.srcs/sources_1/bd/design_1/ipshared/c923"incdir="../../../../dpp.srcs/sources_1/bd/design_1/ipshared/3280/hdl"incdir="../../../../dpp.srcs/sources_1/bd/design_1/ipshared/ec67/hdl"incdir="../../../../dpp.srcs/sources_1/bd/design_1/ipshared/c923"incdir="../../../../dpp.srcs/sources_1/bd/design_1/ipshared/3280/hdl"incdir="../../../../dpp.srcs/sources_1/bd/design_1/ipshared/df50/hdl"incdir="../../../../dpp.srcs/sources_1/bd/design_1/ipshared/1d04/hdl"incdir="../../../../dpp.srcs/sources_1/bd/design_1/ipshared/ec67/hdl"
design_1_blk_mem_gen_0_0.v,verilog,xil_defaultlib,../../../bd/design_1/ip/design_1_blk_mem_gen_0_0/sim/design_1_blk_mem_gen_0_0.v,incdir="../../../../dpp.srcs/sources_1/bd/design_1/ipshared/c923"incdir="../../../../dpp.srcs/sources_1/bd/design_1/ipshared/3280/hdl"incdir="../../../../dpp.srcs/sources_1/bd/design_1/ipshared/ec67/hdl"incdir="../../../../dpp.srcs/sources_1/bd/design_1/ipshared/c923"incdir="../../../../dpp.srcs/sources_1/bd/design_1/ipshared/3280/hdl"incdir="../../../../dpp.srcs/sources_1/bd/design_1/ipshared/df50/hdl"incdir="../../../../dpp.srcs/sources_1/bd/design_1/ipshared/1d04/hdl"incdir="../../../../dpp.srcs/sources_1/bd/design_1/ipshared/ec67/hdl"
ShiftRegisterControl_v1_0_S00_AXI.vhd,vhdl,xil_defaultlib,../../../bd/design_1/ipshared/5ac4/hdl/ShiftRegisterControl_v1_0_S00_AXI.vhd,incdir="../../../../dpp.srcs/sources_1/bd/design_1/ipshared/c923"incdir="../../../../dpp.srcs/sources_1/bd/design_1/ipshared/3280/hdl"incdir="../../../../dpp.srcs/sources_1/bd/design_1/ipshared/ec67/hdl"incdir="../../../../dpp.srcs/sources_1/bd/design_1/ipshared/c923"incdir="../../../../dpp.srcs/sources_1/bd/design_1/ipshared/3280/hdl"incdir="../../../../dpp.srcs/sources_1/bd/design_1/ipshared/df50/hdl"incdir="../../../../dpp.srcs/sources_1/bd/design_1/ipshared/1d04/hdl"incdir="../../../../dpp.srcs/sources_1/bd/design_1/ipshared/ec67/hdl"
ShiftRegisterControl_v1_0.vhd,vhdl,xil_defaultlib,../../../bd/design_1/ipshared/5ac4/hdl/ShiftRegisterControl_v1_0.vhd,incdir="../../../../dpp.srcs/sources_1/bd/design_1/ipshared/c923"incdir="../../../../dpp.srcs/sources_1/bd/design_1/ipshared/3280/hdl"incdir="../../../../dpp.srcs/sources_1/bd/design_1/ipshared/ec67/hdl"incdir="../../../../dpp.srcs/sources_1/bd/design_1/ipshared/c923"incdir="../../../../dpp.srcs/sources_1/bd/design_1/ipshared/3280/hdl"incdir="../../../../dpp.srcs/sources_1/bd/design_1/ipshared/df50/hdl"incdir="../../../../dpp.srcs/sources_1/bd/design_1/ipshared/1d04/hdl"incdir="../../../../dpp.srcs/sources_1/bd/design_1/ipshared/ec67/hdl"
design_1_ShiftRegisterControl_0_0.vhd,vhdl,xil_defaultlib,../../../bd/design_1/ip/design_1_ShiftRegisterControl_0_0/sim/design_1_ShiftRegisterControl_0_0.vhd,incdir="../../../../dpp.srcs/sources_1/bd/design_1/ipshared/c923"incdir="../../../../dpp.srcs/sources_1/bd/design_1/ipshared/3280/hdl"incdir="../../../../dpp.srcs/sources_1/bd/design_1/ipshared/ec67/hdl"incdir="../../../../dpp.srcs/sources_1/bd/design_1/ipshared/c923"incdir="../../../../dpp.srcs/sources_1/bd/design_1/ipshared/3280/hdl"incdir="../../../../dpp.srcs/sources_1/bd/design_1/ipshared/df50/hdl"incdir="../../../../dpp.srcs/sources_1/bd/design_1/ipshared/1d04/hdl"incdir="../../../../dpp.srcs/sources_1/bd/design_1/ipshared/ec67/hdl"
c_mux_bit_v12_0_vh_rfs.vhd,vhdl,c_mux_bit_v12_0_6,../../../../dpp.srcs/sources_1/bd/design_1/ipshared/ecb4/hdl/c_mux_bit_v12_0_vh_rfs.vhd,incdir="../../../../dpp.srcs/sources_1/bd/design_1/ipshared/c923"incdir="../../../../dpp.srcs/sources_1/bd/design_1/ipshared/3280/hdl"incdir="../../../../dpp.srcs/sources_1/bd/design_1/ipshared/ec67/hdl"incdir="../../../../dpp.srcs/sources_1/bd/design_1/ipshared/c923"incdir="../../../../dpp.srcs/sources_1/bd/design_1/ipshared/3280/hdl"incdir="../../../../dpp.srcs/sources_1/bd/design_1/ipshared/df50/hdl"incdir="../../../../dpp.srcs/sources_1/bd/design_1/ipshared/1d04/hdl"incdir="../../../../dpp.srcs/sources_1/bd/design_1/ipshared/ec67/hdl"
c_shift_ram_v12_0_vh_rfs.vhd,vhdl,c_shift_ram_v12_0_13,../../../../dpp.srcs/sources_1/bd/design_1/ipshared/cd8a/hdl/c_shift_ram_v12_0_vh_rfs.vhd,incdir="../../../../dpp.srcs/sources_1/bd/design_1/ipshared/c923"incdir="../../../../dpp.srcs/sources_1/bd/design_1/ipshared/3280/hdl"incdir="../../../../dpp.srcs/sources_1/bd/design_1/ipshared/ec67/hdl"incdir="../../../../dpp.srcs/sources_1/bd/design_1/ipshared/c923"incdir="../../../../dpp.srcs/sources_1/bd/design_1/ipshared/3280/hdl"incdir="../../../../dpp.srcs/sources_1/bd/design_1/ipshared/df50/hdl"incdir="../../../../dpp.srcs/sources_1/bd/design_1/ipshared/1d04/hdl"incdir="../../../../dpp.srcs/sources_1/bd/design_1/ipshared/ec67/hdl"
design_1_c_shift_ram_0_0.vhd,vhdl,xil_defaultlib,../../../bd/design_1/ip/design_1_c_shift_ram_0_0/sim/design_1_c_shift_ram_0_0.vhd,incdir="../../../../dpp.srcs/sources_1/bd/design_1/ipshared/c923"incdir="../../../../dpp.srcs/sources_1/bd/design_1/ipshared/3280/hdl"incdir="../../../../dpp.srcs/sources_1/bd/design_1/ipshared/ec67/hdl"incdir="../../../../dpp.srcs/sources_1/bd/design_1/ipshared/c923"incdir="../../../../dpp.srcs/sources_1/bd/design_1/ipshared/3280/hdl"incdir="../../../../dpp.srcs/sources_1/bd/design_1/ipshared/df50/hdl"incdir="../../../../dpp.srcs/sources_1/bd/design_1/ipshared/1d04/hdl"incdir="../../../../dpp.srcs/sources_1/bd/design_1/ipshared/ec67/hdl"
ip_peakdetector_blk_mem_gen_i0.v,verilog,xil_defaultlib,../../../bd/design_1/ip/design_1_ip_peakdetector_0_0/ip_peakdetector_blk_mem_gen_i0/sim/ip_peakdetector_blk_mem_gen_i0.v,incdir="../../../../dpp.srcs/sources_1/bd/design_1/ipshared/c923"incdir="../../../../dpp.srcs/sources_1/bd/design_1/ipshared/3280/hdl"incdir="../../../../dpp.srcs/sources_1/bd/design_1/ipshared/ec67/hdl"incdir="../../../../dpp.srcs/sources_1/bd/design_1/ipshared/c923"incdir="../../../../dpp.srcs/sources_1/bd/design_1/ipshared/3280/hdl"incdir="../../../../dpp.srcs/sources_1/bd/design_1/ipshared/df50/hdl"incdir="../../../../dpp.srcs/sources_1/bd/design_1/ipshared/1d04/hdl"incdir="../../../../dpp.srcs/sources_1/bd/design_1/ipshared/ec67/hdl"
ip_peakdetector_c_addsub_v12_0_i0.vhd,vhdl,xil_defaultlib,../../../bd/design_1/ip/design_1_ip_peakdetector_0_0/ip_peakdetector_c_addsub_v12_0_i0/sim/ip_peakdetector_c_addsub_v12_0_i0.vhd,incdir="../../../../dpp.srcs/sources_1/bd/design_1/ipshared/c923"incdir="../../../../dpp.srcs/sources_1/bd/design_1/ipshared/3280/hdl"incdir="../../../../dpp.srcs/sources_1/bd/design_1/ipshared/ec67/hdl"incdir="../../../../dpp.srcs/sources_1/bd/design_1/ipshared/c923"incdir="../../../../dpp.srcs/sources_1/bd/design_1/ipshared/3280/hdl"incdir="../../../../dpp.srcs/sources_1/bd/design_1/ipshared/df50/hdl"incdir="../../../../dpp.srcs/sources_1/bd/design_1/ipshared/1d04/hdl"incdir="../../../../dpp.srcs/sources_1/bd/design_1/ipshared/ec67/hdl"
ip_peakdetector_c_counter_binary_v12_0_i0.vhd,vhdl,xil_defaultlib,../../../bd/design_1/ip/design_1_ip_peakdetector_0_0/ip_peakdetector_c_counter_binary_v12_0_i0/sim/ip_peakdetector_c_counter_binary_v12_0_i0.vhd,incdir="../../../../dpp.srcs/sources_1/bd/design_1/ipshared/c923"incdir="../../../../dpp.srcs/sources_1/bd/design_1/ipshared/3280/hdl"incdir="../../../../dpp.srcs/sources_1/bd/design_1/ipshared/ec67/hdl"incdir="../../../../dpp.srcs/sources_1/bd/design_1/ipshared/c923"incdir="../../../../dpp.srcs/sources_1/bd/design_1/ipshared/3280/hdl"incdir="../../../../dpp.srcs/sources_1/bd/design_1/ipshared/df50/hdl"incdir="../../../../dpp.srcs/sources_1/bd/design_1/ipshared/1d04/hdl"incdir="../../../../dpp.srcs/sources_1/bd/design_1/ipshared/ec67/hdl"
ip_peakdetector_entity_declarations.vhd,vhdl,xil_defaultlib,../../../../dpp.srcs/sources_1/bd/design_1/ipshared/1d04/hdl/ip_peakdetector_entity_declarations.vhd,incdir="../../../../dpp.srcs/sources_1/bd/design_1/ipshared/c923"incdir="../../../../dpp.srcs/sources_1/bd/design_1/ipshared/3280/hdl"incdir="../../../../dpp.srcs/sources_1/bd/design_1/ipshared/ec67/hdl"incdir="../../../../dpp.srcs/sources_1/bd/design_1/ipshared/c923"incdir="../../../../dpp.srcs/sources_1/bd/design_1/ipshared/3280/hdl"incdir="../../../../dpp.srcs/sources_1/bd/design_1/ipshared/df50/hdl"incdir="../../../../dpp.srcs/sources_1/bd/design_1/ipshared/1d04/hdl"incdir="../../../../dpp.srcs/sources_1/bd/design_1/ipshared/ec67/hdl"
ip_peakdetector.vhd,vhdl,xil_defaultlib,../../../../dpp.srcs/sources_1/bd/design_1/ipshared/1d04/hdl/ip_peakdetector.vhd,incdir="../../../../dpp.srcs/sources_1/bd/design_1/ipshared/c923"incdir="../../../../dpp.srcs/sources_1/bd/design_1/ipshared/3280/hdl"incdir="../../../../dpp.srcs/sources_1/bd/design_1/ipshared/ec67/hdl"incdir="../../../../dpp.srcs/sources_1/bd/design_1/ipshared/c923"incdir="../../../../dpp.srcs/sources_1/bd/design_1/ipshared/3280/hdl"incdir="../../../../dpp.srcs/sources_1/bd/design_1/ipshared/df50/hdl"incdir="../../../../dpp.srcs/sources_1/bd/design_1/ipshared/1d04/hdl"incdir="../../../../dpp.srcs/sources_1/bd/design_1/ipshared/ec67/hdl"
axibusdomain_axi_lite_interface_verilog.v,verilog,xil_defaultlib,../../../../dpp.srcs/sources_1/bd/design_1/ipshared/1d04/hdl/axibusdomain_axi_lite_interface_verilog.v,incdir="../../../../dpp.srcs/sources_1/bd/design_1/ipshared/c923"incdir="../../../../dpp.srcs/sources_1/bd/design_1/ipshared/3280/hdl"incdir="../../../../dpp.srcs/sources_1/bd/design_1/ipshared/ec67/hdl"incdir="../../../../dpp.srcs/sources_1/bd/design_1/ipshared/c923"incdir="../../../../dpp.srcs/sources_1/bd/design_1/ipshared/3280/hdl"incdir="../../../../dpp.srcs/sources_1/bd/design_1/ipshared/df50/hdl"incdir="../../../../dpp.srcs/sources_1/bd/design_1/ipshared/1d04/hdl"incdir="../../../../dpp.srcs/sources_1/bd/design_1/ipshared/ec67/hdl"
design_1_ip_peakdetector_0_0.v,verilog,xil_defaultlib,../../../bd/design_1/ip/design_1_ip_peakdetector_0_0/sim/design_1_ip_peakdetector_0_0.v,incdir="../../../../dpp.srcs/sources_1/bd/design_1/ipshared/c923"incdir="../../../../dpp.srcs/sources_1/bd/design_1/ipshared/3280/hdl"incdir="../../../../dpp.srcs/sources_1/bd/design_1/ipshared/ec67/hdl"incdir="../../../../dpp.srcs/sources_1/bd/design_1/ipshared/c923"incdir="../../../../dpp.srcs/sources_1/bd/design_1/ipshared/3280/hdl"incdir="../../../../dpp.srcs/sources_1/bd/design_1/ipshared/df50/hdl"incdir="../../../../dpp.srcs/sources_1/bd/design_1/ipshared/1d04/hdl"incdir="../../../../dpp.srcs/sources_1/bd/design_1/ipshared/ec67/hdl"
clk_lt_enable.vhd,vhdl,xil_defaultlib,../../../bd/design_1/ipshared/476e/src/clk_lt_enable.vhd,incdir="../../../../dpp.srcs/sources_1/bd/design_1/ipshared/c923"incdir="../../../../dpp.srcs/sources_1/bd/design_1/ipshared/3280/hdl"incdir="../../../../dpp.srcs/sources_1/bd/design_1/ipshared/ec67/hdl"incdir="../../../../dpp.srcs/sources_1/bd/design_1/ipshared/c923"incdir="../../../../dpp.srcs/sources_1/bd/design_1/ipshared/3280/hdl"incdir="../../../../dpp.srcs/sources_1/bd/design_1/ipshared/df50/hdl"incdir="../../../../dpp.srcs/sources_1/bd/design_1/ipshared/1d04/hdl"incdir="../../../../dpp.srcs/sources_1/bd/design_1/ipshared/ec67/hdl"
clock_1KHz_enable.vhd,vhdl,xil_defaultlib,../../../bd/design_1/ipshared/476e/src/clock_1KHz_enable.vhd,incdir="../../../../dpp.srcs/sources_1/bd/design_1/ipshared/c923"incdir="../../../../dpp.srcs/sources_1/bd/design_1/ipshared/3280/hdl"incdir="../../../../dpp.srcs/sources_1/bd/design_1/ipshared/ec67/hdl"incdir="../../../../dpp.srcs/sources_1/bd/design_1/ipshared/c923"incdir="../../../../dpp.srcs/sources_1/bd/design_1/ipshared/3280/hdl"incdir="../../../../dpp.srcs/sources_1/bd/design_1/ipshared/df50/hdl"incdir="../../../../dpp.srcs/sources_1/bd/design_1/ipshared/1d04/hdl"incdir="../../../../dpp.srcs/sources_1/bd/design_1/ipshared/ec67/hdl"
comparator.vhd,vhdl,xil_defaultlib,../../../bd/design_1/ipshared/476e/src/comparator.vhd,incdir="../../../../dpp.srcs/sources_1/bd/design_1/ipshared/c923"incdir="../../../../dpp.srcs/sources_1/bd/design_1/ipshared/3280/hdl"incdir="../../../../dpp.srcs/sources_1/bd/design_1/ipshared/ec67/hdl"incdir="../../../../dpp.srcs/sources_1/bd/design_1/ipshared/c923"incdir="../../../../dpp.srcs/sources_1/bd/design_1/ipshared/3280/hdl"incdir="../../../../dpp.srcs/sources_1/bd/design_1/ipshared/df50/hdl"incdir="../../../../dpp.srcs/sources_1/bd/design_1/ipshared/1d04/hdl"incdir="../../../../dpp.srcs/sources_1/bd/design_1/ipshared/ec67/hdl"
counter.vhd,vhdl,xil_defaultlib,../../../bd/design_1/ipshared/476e/src/counter.vhd,incdir="../../../../dpp.srcs/sources_1/bd/design_1/ipshared/c923"incdir="../../../../dpp.srcs/sources_1/bd/design_1/ipshared/3280/hdl"incdir="../../../../dpp.srcs/sources_1/bd/design_1/ipshared/ec67/hdl"incdir="../../../../dpp.srcs/sources_1/bd/design_1/ipshared/c923"incdir="../../../../dpp.srcs/sources_1/bd/design_1/ipshared/3280/hdl"incdir="../../../../dpp.srcs/sources_1/bd/design_1/ipshared/df50/hdl"incdir="../../../../dpp.srcs/sources_1/bd/design_1/ipshared/1d04/hdl"incdir="../../../../dpp.srcs/sources_1/bd/design_1/ipshared/ec67/hdl"
fsm_auto_mode.vhd,vhdl,xil_defaultlib,../../../bd/design_1/ipshared/476e/src/fsm_auto_mode.vhd,incdir="../../../../dpp.srcs/sources_1/bd/design_1/ipshared/c923"incdir="../../../../dpp.srcs/sources_1/bd/design_1/ipshared/3280/hdl"incdir="../../../../dpp.srcs/sources_1/bd/design_1/ipshared/ec67/hdl"incdir="../../../../dpp.srcs/sources_1/bd/design_1/ipshared/c923"incdir="../../../../dpp.srcs/sources_1/bd/design_1/ipshared/3280/hdl"incdir="../../../../dpp.srcs/sources_1/bd/design_1/ipshared/df50/hdl"incdir="../../../../dpp.srcs/sources_1/bd/design_1/ipshared/1d04/hdl"incdir="../../../../dpp.srcs/sources_1/bd/design_1/ipshared/ec67/hdl"
ip_timers_v2_0_S00_AXI.vhd,vhdl,xil_defaultlib,../../../bd/design_1/ipshared/476e/hdl/ip_timers_v2_0_S00_AXI.vhd,incdir="../../../../dpp.srcs/sources_1/bd/design_1/ipshared/c923"incdir="../../../../dpp.srcs/sources_1/bd/design_1/ipshared/3280/hdl"incdir="../../../../dpp.srcs/sources_1/bd/design_1/ipshared/ec67/hdl"incdir="../../../../dpp.srcs/sources_1/bd/design_1/ipshared/c923"incdir="../../../../dpp.srcs/sources_1/bd/design_1/ipshared/3280/hdl"incdir="../../../../dpp.srcs/sources_1/bd/design_1/ipshared/df50/hdl"incdir="../../../../dpp.srcs/sources_1/bd/design_1/ipshared/1d04/hdl"incdir="../../../../dpp.srcs/sources_1/bd/design_1/ipshared/ec67/hdl"
t_ff.vhd,vhdl,xil_defaultlib,../../../bd/design_1/ipshared/476e/src/t_ff.vhd,incdir="../../../../dpp.srcs/sources_1/bd/design_1/ipshared/c923"incdir="../../../../dpp.srcs/sources_1/bd/design_1/ipshared/3280/hdl"incdir="../../../../dpp.srcs/sources_1/bd/design_1/ipshared/ec67/hdl"incdir="../../../../dpp.srcs/sources_1/bd/design_1/ipshared/c923"incdir="../../../../dpp.srcs/sources_1/bd/design_1/ipshared/3280/hdl"incdir="../../../../dpp.srcs/sources_1/bd/design_1/ipshared/df50/hdl"incdir="../../../../dpp.srcs/sources_1/bd/design_1/ipshared/1d04/hdl"incdir="../../../../dpp.srcs/sources_1/bd/design_1/ipshared/ec67/hdl"
timers.vhd,vhdl,xil_defaultlib,../../../bd/design_1/ipshared/476e/src/timers.vhd,incdir="../../../../dpp.srcs/sources_1/bd/design_1/ipshared/c923"incdir="../../../../dpp.srcs/sources_1/bd/design_1/ipshared/3280/hdl"incdir="../../../../dpp.srcs/sources_1/bd/design_1/ipshared/ec67/hdl"incdir="../../../../dpp.srcs/sources_1/bd/design_1/ipshared/c923"incdir="../../../../dpp.srcs/sources_1/bd/design_1/ipshared/3280/hdl"incdir="../../../../dpp.srcs/sources_1/bd/design_1/ipshared/df50/hdl"incdir="../../../../dpp.srcs/sources_1/bd/design_1/ipshared/1d04/hdl"incdir="../../../../dpp.srcs/sources_1/bd/design_1/ipshared/ec67/hdl"
ip_timers_v2_0.vhd,vhdl,xil_defaultlib,../../../bd/design_1/ipshared/476e/hdl/ip_timers_v2_0.vhd,incdir="../../../../dpp.srcs/sources_1/bd/design_1/ipshared/c923"incdir="../../../../dpp.srcs/sources_1/bd/design_1/ipshared/3280/hdl"incdir="../../../../dpp.srcs/sources_1/bd/design_1/ipshared/ec67/hdl"incdir="../../../../dpp.srcs/sources_1/bd/design_1/ipshared/c923"incdir="../../../../dpp.srcs/sources_1/bd/design_1/ipshared/3280/hdl"incdir="../../../../dpp.srcs/sources_1/bd/design_1/ipshared/df50/hdl"incdir="../../../../dpp.srcs/sources_1/bd/design_1/ipshared/1d04/hdl"incdir="../../../../dpp.srcs/sources_1/bd/design_1/ipshared/ec67/hdl"
design_1_ip_timers_0_0.vhd,vhdl,xil_defaultlib,../../../bd/design_1/ip/design_1_ip_timers_0_0/sim/design_1_ip_timers_0_0.vhd,incdir="../../../../dpp.srcs/sources_1/bd/design_1/ipshared/c923"incdir="../../../../dpp.srcs/sources_1/bd/design_1/ipshared/3280/hdl"incdir="../../../../dpp.srcs/sources_1/bd/design_1/ipshared/ec67/hdl"incdir="../../../../dpp.srcs/sources_1/bd/design_1/ipshared/c923"incdir="../../../../dpp.srcs/sources_1/bd/design_1/ipshared/3280/hdl"incdir="../../../../dpp.srcs/sources_1/bd/design_1/ipshared/df50/hdl"incdir="../../../../dpp.srcs/sources_1/bd/design_1/ipshared/1d04/hdl"incdir="../../../../dpp.srcs/sources_1/bd/design_1/ipshared/ec67/hdl"
top.vhd,vhdl,xil_defaultlib,../../../bd/design_1/ipshared/2ff5/src/top.vhd,incdir="../../../../dpp.srcs/sources_1/bd/design_1/ipshared/c923"incdir="../../../../dpp.srcs/sources_1/bd/design_1/ipshared/3280/hdl"incdir="../../../../dpp.srcs/sources_1/bd/design_1/ipshared/ec67/hdl"incdir="../../../../dpp.srcs/sources_1/bd/design_1/ipshared/c923"incdir="../../../../dpp.srcs/sources_1/bd/design_1/ipshared/3280/hdl"incdir="../../../../dpp.srcs/sources_1/bd/design_1/ipshared/df50/hdl"incdir="../../../../dpp.srcs/sources_1/bd/design_1/ipshared/1d04/hdl"incdir="../../../../dpp.srcs/sources_1/bd/design_1/ipshared/ec67/hdl"
design_1_ip_dbg_pha_0_0.vhd,vhdl,xil_defaultlib,../../../bd/design_1/ip/design_1_ip_dbg_pha_0_0/sim/design_1_ip_dbg_pha_0_0.vhd,incdir="../../../../dpp.srcs/sources_1/bd/design_1/ipshared/c923"incdir="../../../../dpp.srcs/sources_1/bd/design_1/ipshared/3280/hdl"incdir="../../../../dpp.srcs/sources_1/bd/design_1/ipshared/ec67/hdl"incdir="../../../../dpp.srcs/sources_1/bd/design_1/ipshared/c923"incdir="../../../../dpp.srcs/sources_1/bd/design_1/ipshared/3280/hdl"incdir="../../../../dpp.srcs/sources_1/bd/design_1/ipshared/df50/hdl"incdir="../../../../dpp.srcs/sources_1/bd/design_1/ipshared/1d04/hdl"incdir="../../../../dpp.srcs/sources_1/bd/design_1/ipshared/ec67/hdl"
xlconcat_v2_1_vl_rfs.v,verilog,xlconcat_v2_1_3,../../../../dpp.srcs/sources_1/bd/design_1/ipshared/442e/hdl/xlconcat_v2_1_vl_rfs.v,incdir="../../../../dpp.srcs/sources_1/bd/design_1/ipshared/c923"incdir="../../../../dpp.srcs/sources_1/bd/design_1/ipshared/3280/hdl"incdir="../../../../dpp.srcs/sources_1/bd/design_1/ipshared/ec67/hdl"incdir="../../../../dpp.srcs/sources_1/bd/design_1/ipshared/c923"incdir="../../../../dpp.srcs/sources_1/bd/design_1/ipshared/3280/hdl"incdir="../../../../dpp.srcs/sources_1/bd/design_1/ipshared/df50/hdl"incdir="../../../../dpp.srcs/sources_1/bd/design_1/ipshared/1d04/hdl"incdir="../../../../dpp.srcs/sources_1/bd/design_1/ipshared/ec67/hdl"
design_1_xlconcat_0_0.v,verilog,xil_defaultlib,../../../bd/design_1/ip/design_1_xlconcat_0_0/sim/design_1_xlconcat_0_0.v,incdir="../../../../dpp.srcs/sources_1/bd/design_1/ipshared/c923"incdir="../../../../dpp.srcs/sources_1/bd/design_1/ipshared/3280/hdl"incdir="../../../../dpp.srcs/sources_1/bd/design_1/ipshared/ec67/hdl"incdir="../../../../dpp.srcs/sources_1/bd/design_1/ipshared/c923"incdir="../../../../dpp.srcs/sources_1/bd/design_1/ipshared/3280/hdl"incdir="../../../../dpp.srcs/sources_1/bd/design_1/ipshared/df50/hdl"incdir="../../../../dpp.srcs/sources_1/bd/design_1/ipshared/1d04/hdl"incdir="../../../../dpp.srcs/sources_1/bd/design_1/ipshared/ec67/hdl"
util_reduced_logic_v2_0_vl_rfs.v,verilog,util_reduced_logic_v2_0_4,../../../../dpp.srcs/sources_1/bd/design_1/ipshared/4c94/hdl/util_reduced_logic_v2_0_vl_rfs.v,incdir="../../../../dpp.srcs/sources_1/bd/design_1/ipshared/c923"incdir="../../../../dpp.srcs/sources_1/bd/design_1/ipshared/3280/hdl"incdir="../../../../dpp.srcs/sources_1/bd/design_1/ipshared/ec67/hdl"incdir="../../../../dpp.srcs/sources_1/bd/design_1/ipshared/c923"incdir="../../../../dpp.srcs/sources_1/bd/design_1/ipshared/3280/hdl"incdir="../../../../dpp.srcs/sources_1/bd/design_1/ipshared/df50/hdl"incdir="../../../../dpp.srcs/sources_1/bd/design_1/ipshared/1d04/hdl"incdir="../../../../dpp.srcs/sources_1/bd/design_1/ipshared/ec67/hdl"
design_1_util_reduced_logic_0_0.v,verilog,xil_defaultlib,../../../bd/design_1/ip/design_1_util_reduced_logic_0_0/sim/design_1_util_reduced_logic_0_0.v,incdir="../../../../dpp.srcs/sources_1/bd/design_1/ipshared/c923"incdir="../../../../dpp.srcs/sources_1/bd/design_1/ipshared/3280/hdl"incdir="../../../../dpp.srcs/sources_1/bd/design_1/ipshared/ec67/hdl"incdir="../../../../dpp.srcs/sources_1/bd/design_1/ipshared/c923"incdir="../../../../dpp.srcs/sources_1/bd/design_1/ipshared/3280/hdl"incdir="../../../../dpp.srcs/sources_1/bd/design_1/ipshared/df50/hdl"incdir="../../../../dpp.srcs/sources_1/bd/design_1/ipshared/1d04/hdl"incdir="../../../../dpp.srcs/sources_1/bd/design_1/ipshared/ec67/hdl"
xlconstant_v1_1_vl_rfs.v,verilog,xlconstant_v1_1_6,../../../../dpp.srcs/sources_1/bd/design_1/ipshared/66e7/hdl/xlconstant_v1_1_vl_rfs.v,incdir="../../../../dpp.srcs/sources_1/bd/design_1/ipshared/c923"incdir="../../../../dpp.srcs/sources_1/bd/design_1/ipshared/3280/hdl"incdir="../../../../dpp.srcs/sources_1/bd/design_1/ipshared/ec67/hdl"incdir="../../../../dpp.srcs/sources_1/bd/design_1/ipshared/c923"incdir="../../../../dpp.srcs/sources_1/bd/design_1/ipshared/3280/hdl"incdir="../../../../dpp.srcs/sources_1/bd/design_1/ipshared/df50/hdl"incdir="../../../../dpp.srcs/sources_1/bd/design_1/ipshared/1d04/hdl"incdir="../../../../dpp.srcs/sources_1/bd/design_1/ipshared/ec67/hdl"
design_1_xlconstant_0_0.v,verilog,xil_defaultlib,../../../bd/design_1/ip/design_1_xlconstant_0_0/sim/design_1_xlconstant_0_0.v,incdir="../../../../dpp.srcs/sources_1/bd/design_1/ipshared/c923"incdir="../../../../dpp.srcs/sources_1/bd/design_1/ipshared/3280/hdl"incdir="../../../../dpp.srcs/sources_1/bd/design_1/ipshared/ec67/hdl"incdir="../../../../dpp.srcs/sources_1/bd/design_1/ipshared/c923"incdir="../../../../dpp.srcs/sources_1/bd/design_1/ipshared/3280/hdl"incdir="../../../../dpp.srcs/sources_1/bd/design_1/ipshared/df50/hdl"incdir="../../../../dpp.srcs/sources_1/bd/design_1/ipshared/1d04/hdl"incdir="../../../../dpp.srcs/sources_1/bd/design_1/ipshared/ec67/hdl"
generic_baseblocks_v2_1_vl_rfs.v,verilog,generic_baseblocks_v2_1_0,../../../../dpp.srcs/sources_1/bd/design_1/ipshared/b752/hdl/generic_baseblocks_v2_1_vl_rfs.v,incdir="../../../../dpp.srcs/sources_1/bd/design_1/ipshared/c923"incdir="../../../../dpp.srcs/sources_1/bd/design_1/ipshared/3280/hdl"incdir="../../../../dpp.srcs/sources_1/bd/design_1/ipshared/ec67/hdl"incdir="../../../../dpp.srcs/sources_1/bd/design_1/ipshared/c923"incdir="../../../../dpp.srcs/sources_1/bd/design_1/ipshared/3280/hdl"incdir="../../../../dpp.srcs/sources_1/bd/design_1/ipshared/df50/hdl"incdir="../../../../dpp.srcs/sources_1/bd/design_1/ipshared/1d04/hdl"incdir="../../../../dpp.srcs/sources_1/bd/design_1/ipshared/ec67/hdl"
axi_infrastructure_v1_1_vl_rfs.v,verilog,axi_infrastructure_v1_1_0,../../../../dpp.srcs/sources_1/bd/design_1/ipshared/ec67/hdl/axi_infrastructure_v1_1_vl_rfs.v,incdir="../../../../dpp.srcs/sources_1/bd/design_1/ipshared/c923"incdir="../../../../dpp.srcs/sources_1/bd/design_1/ipshared/3280/hdl"incdir="../../../../dpp.srcs/sources_1/bd/design_1/ipshared/ec67/hdl"incdir="../../../../dpp.srcs/sources_1/bd/design_1/ipshared/c923"incdir="../../../../dpp.srcs/sources_1/bd/design_1/ipshared/3280/hdl"incdir="../../../../dpp.srcs/sources_1/bd/design_1/ipshared/df50/hdl"incdir="../../../../dpp.srcs/sources_1/bd/design_1/ipshared/1d04/hdl"incdir="../../../../dpp.srcs/sources_1/bd/design_1/ipshared/ec67/hdl"
axi_register_slice_v2_1_vl_rfs.v,verilog,axi_register_slice_v2_1_19,../../../../dpp.srcs/sources_1/bd/design_1/ipshared/4d88/hdl/axi_register_slice_v2_1_vl_rfs.v,incdir="../../../../dpp.srcs/sources_1/bd/design_1/ipshared/c923"incdir="../../../../dpp.srcs/sources_1/bd/design_1/ipshared/3280/hdl"incdir="../../../../dpp.srcs/sources_1/bd/design_1/ipshared/ec67/hdl"incdir="../../../../dpp.srcs/sources_1/bd/design_1/ipshared/c923"incdir="../../../../dpp.srcs/sources_1/bd/design_1/ipshared/3280/hdl"incdir="../../../../dpp.srcs/sources_1/bd/design_1/ipshared/df50/hdl"incdir="../../../../dpp.srcs/sources_1/bd/design_1/ipshared/1d04/hdl"incdir="../../../../dpp.srcs/sources_1/bd/design_1/ipshared/ec67/hdl"
fifo_generator_vlog_beh.v,verilog,fifo_generator_v13_2_4,../../../../dpp.srcs/sources_1/bd/design_1/ipshared/1f5a/simulation/fifo_generator_vlog_beh.v,incdir="../../../../dpp.srcs/sources_1/bd/design_1/ipshared/c923"incdir="../../../../dpp.srcs/sources_1/bd/design_1/ipshared/3280/hdl"incdir="../../../../dpp.srcs/sources_1/bd/design_1/ipshared/ec67/hdl"incdir="../../../../dpp.srcs/sources_1/bd/design_1/ipshared/c923"incdir="../../../../dpp.srcs/sources_1/bd/design_1/ipshared/3280/hdl"incdir="../../../../dpp.srcs/sources_1/bd/design_1/ipshared/df50/hdl"incdir="../../../../dpp.srcs/sources_1/bd/design_1/ipshared/1d04/hdl"incdir="../../../../dpp.srcs/sources_1/bd/design_1/ipshared/ec67/hdl"
fifo_generator_v13_2_rfs.vhd,vhdl,fifo_generator_v13_2_4,../../../../dpp.srcs/sources_1/bd/design_1/ipshared/1f5a/hdl/fifo_generator_v13_2_rfs.vhd,incdir="../../../../dpp.srcs/sources_1/bd/design_1/ipshared/c923"incdir="../../../../dpp.srcs/sources_1/bd/design_1/ipshared/3280/hdl"incdir="../../../../dpp.srcs/sources_1/bd/design_1/ipshared/ec67/hdl"incdir="../../../../dpp.srcs/sources_1/bd/design_1/ipshared/c923"incdir="../../../../dpp.srcs/sources_1/bd/design_1/ipshared/3280/hdl"incdir="../../../../dpp.srcs/sources_1/bd/design_1/ipshared/df50/hdl"incdir="../../../../dpp.srcs/sources_1/bd/design_1/ipshared/1d04/hdl"incdir="../../../../dpp.srcs/sources_1/bd/design_1/ipshared/ec67/hdl"
fifo_generator_v13_2_rfs.v,verilog,fifo_generator_v13_2_4,../../../../dpp.srcs/sources_1/bd/design_1/ipshared/1f5a/hdl/fifo_generator_v13_2_rfs.v,incdir="../../../../dpp.srcs/sources_1/bd/design_1/ipshared/c923"incdir="../../../../dpp.srcs/sources_1/bd/design_1/ipshared/3280/hdl"incdir="../../../../dpp.srcs/sources_1/bd/design_1/ipshared/ec67/hdl"incdir="../../../../dpp.srcs/sources_1/bd/design_1/ipshared/c923"incdir="../../../../dpp.srcs/sources_1/bd/design_1/ipshared/3280/hdl"incdir="../../../../dpp.srcs/sources_1/bd/design_1/ipshared/df50/hdl"incdir="../../../../dpp.srcs/sources_1/bd/design_1/ipshared/1d04/hdl"incdir="../../../../dpp.srcs/sources_1/bd/design_1/ipshared/ec67/hdl"
axi_data_fifo_v2_1_vl_rfs.v,verilog,axi_data_fifo_v2_1_18,../../../../dpp.srcs/sources_1/bd/design_1/ipshared/5b9c/hdl/axi_data_fifo_v2_1_vl_rfs.v,incdir="../../../../dpp.srcs/sources_1/bd/design_1/ipshared/c923"incdir="../../../../dpp.srcs/sources_1/bd/design_1/ipshared/3280/hdl"incdir="../../../../dpp.srcs/sources_1/bd/design_1/ipshared/ec67/hdl"incdir="../../../../dpp.srcs/sources_1/bd/design_1/ipshared/c923"incdir="../../../../dpp.srcs/sources_1/bd/design_1/ipshared/3280/hdl"incdir="../../../../dpp.srcs/sources_1/bd/design_1/ipshared/df50/hdl"incdir="../../../../dpp.srcs/sources_1/bd/design_1/ipshared/1d04/hdl"incdir="../../../../dpp.srcs/sources_1/bd/design_1/ipshared/ec67/hdl"
axi_crossbar_v2_1_vl_rfs.v,verilog,axi_crossbar_v2_1_20,../../../../dpp.srcs/sources_1/bd/design_1/ipshared/ace7/hdl/axi_crossbar_v2_1_vl_rfs.v,incdir="../../../../dpp.srcs/sources_1/bd/design_1/ipshared/c923"incdir="../../../../dpp.srcs/sources_1/bd/design_1/ipshared/3280/hdl"incdir="../../../../dpp.srcs/sources_1/bd/design_1/ipshared/ec67/hdl"incdir="../../../../dpp.srcs/sources_1/bd/design_1/ipshared/c923"incdir="../../../../dpp.srcs/sources_1/bd/design_1/ipshared/3280/hdl"incdir="../../../../dpp.srcs/sources_1/bd/design_1/ipshared/df50/hdl"incdir="../../../../dpp.srcs/sources_1/bd/design_1/ipshared/1d04/hdl"incdir="../../../../dpp.srcs/sources_1/bd/design_1/ipshared/ec67/hdl"
design_1_xbar_0.v,verilog,xil_defaultlib,../../../bd/design_1/ip/design_1_xbar_0/sim/design_1_xbar_0.v,incdir="../../../../dpp.srcs/sources_1/bd/design_1/ipshared/c923"incdir="../../../../dpp.srcs/sources_1/bd/design_1/ipshared/3280/hdl"incdir="../../../../dpp.srcs/sources_1/bd/design_1/ipshared/ec67/hdl"incdir="../../../../dpp.srcs/sources_1/bd/design_1/ipshared/c923"incdir="../../../../dpp.srcs/sources_1/bd/design_1/ipshared/3280/hdl"incdir="../../../../dpp.srcs/sources_1/bd/design_1/ipshared/df50/hdl"incdir="../../../../dpp.srcs/sources_1/bd/design_1/ipshared/1d04/hdl"incdir="../../../../dpp.srcs/sources_1/bd/design_1/ipshared/ec67/hdl"
axi_protocol_converter_v2_1_vl_rfs.v,verilog,axi_protocol_converter_v2_1_19,../../../../dpp.srcs/sources_1/bd/design_1/ipshared/c83a/hdl/axi_protocol_converter_v2_1_vl_rfs.v,incdir="../../../../dpp.srcs/sources_1/bd/design_1/ipshared/c923"incdir="../../../../dpp.srcs/sources_1/bd/design_1/ipshared/3280/hdl"incdir="../../../../dpp.srcs/sources_1/bd/design_1/ipshared/ec67/hdl"incdir="../../../../dpp.srcs/sources_1/bd/design_1/ipshared/c923"incdir="../../../../dpp.srcs/sources_1/bd/design_1/ipshared/3280/hdl"incdir="../../../../dpp.srcs/sources_1/bd/design_1/ipshared/df50/hdl"incdir="../../../../dpp.srcs/sources_1/bd/design_1/ipshared/1d04/hdl"incdir="../../../../dpp.srcs/sources_1/bd/design_1/ipshared/ec67/hdl"
design_1_auto_pc_0.v,verilog,xil_defaultlib,../../../bd/design_1/ip/design_1_auto_pc_0/sim/design_1_auto_pc_0.v,incdir="../../../../dpp.srcs/sources_1/bd/design_1/ipshared/c923"incdir="../../../../dpp.srcs/sources_1/bd/design_1/ipshared/3280/hdl"incdir="../../../../dpp.srcs/sources_1/bd/design_1/ipshared/ec67/hdl"incdir="../../../../dpp.srcs/sources_1/bd/design_1/ipshared/c923"incdir="../../../../dpp.srcs/sources_1/bd/design_1/ipshared/3280/hdl"incdir="../../../../dpp.srcs/sources_1/bd/design_1/ipshared/df50/hdl"incdir="../../../../dpp.srcs/sources_1/bd/design_1/ipshared/1d04/hdl"incdir="../../../../dpp.srcs/sources_1/bd/design_1/ipshared/ec67/hdl"
design_1.v,verilog,xil_defaultlib,../../../bd/design_1/sim/design_1.v,incdir="../../../../dpp.srcs/sources_1/bd/design_1/ipshared/c923"incdir="../../../../dpp.srcs/sources_1/bd/design_1/ipshared/3280/hdl"incdir="../../../../dpp.srcs/sources_1/bd/design_1/ipshared/ec67/hdl"incdir="../../../../dpp.srcs/sources_1/bd/design_1/ipshared/c923"incdir="../../../../dpp.srcs/sources_1/bd/design_1/ipshared/3280/hdl"incdir="../../../../dpp.srcs/sources_1/bd/design_1/ipshared/df50/hdl"incdir="../../../../dpp.srcs/sources_1/bd/design_1/ipshared/1d04/hdl"incdir="../../../../dpp.srcs/sources_1/bd/design_1/ipshared/ec67/hdl"
glbl.v,Verilog,xil_defaultlib,glbl.v
